<?xml version="1.0" encoding="UTF-8" standalone="no"?>
<!-- Created with Inkscape (http://www.inkscape.org/) -->

<svg
   width="231.12233mm"
   height="63.553101mm"
   viewBox="0 0 231.12232 63.553101"
   version="1.1"
   id="svg5"
   sodipodi:docname="logo.svg"
   inkscape:version="1.2.1 (9c6d41e410, 2022-07-14)"
   xml:space="preserve"
   inkscape:export-filename="logo2.png"
   inkscape:export-xdpi="300"
   inkscape:export-ydpi="300"
   xmlns:inkscape="http://www.inkscape.org/namespaces/inkscape"
   xmlns:sodipodi="http://sodipodi.sourceforge.net/DTD/sodipodi-0.dtd"
   xmlns="http://www.w3.org/2000/svg"
   xmlns:svg="http://www.w3.org/2000/svg"><sodipodi:namedview
     id="namedview7"
     pagecolor="#505050"
     bordercolor="#eeeeee"
     borderopacity="1"
     inkscape:showpageshadow="0"
     inkscape:pageopacity="0"
     inkscape:pagecheckerboard="0"
     inkscape:deskcolor="#505050"
     inkscape:document-units="mm"
     showgrid="false"
     inkscape:zoom="1.0196523"
     inkscape:cx="428.0871"
     inkscape:cy="405.04003"
     inkscape:window-width="1920"
     inkscape:window-height="1017"
     inkscape:window-x="-8"
     inkscape:window-y="-8"
     inkscape:window-maximized="1"
     inkscape:current-layer="g16850"
     inkscape:lockguides="true" /><defs
     id="defs2"><rect
       x="530.57349"
       y="280.08423"
       width="1078.3615"
       height="462.31287"
       id="rect11053-6" /><rect
       x="530.57349"
       y="280.08423"
       width="1078.3615"
       height="462.31287"
       id="rect11441-4" /><inkscape:path-effect
       effect="fillet_chamfer"
       id="path-effect429-9-2-5"
       is_visible="true"
       lpeversion="1"
       nodesatellites_param="F,0,0,1,0,6.6145833,0,1 @ F,0,0,1,0,6.6145833,0,1 @ F,0,0,1,0,6.6145833,0,1 @ F,0,0,1,0,6.6145833,0,1"
       unit="px"
       method="auto"
       mode="F"
       radius="25"
       chamfer_steps="1"
       flexible="false"
       use_knot_distance="true"
       apply_no_radius="true"
       apply_with_radius="true"
       only_selected="false"
       hide_knots="false" /></defs><g
     inkscape:groupmode="layer"
     id="layer2"
     inkscape:label="icon"
     transform="translate(-397.17897,-312.81806)"><g
       id="g16850"
       inkscape:export-filename="logo\1.svg"
       inkscape:export-xdpi="300"
       inkscape:export-ydpi="300"
       transform="matrix(0.932487,0,0,0.932487,-34.28691,-6.14821)"><g
         id="g4244"><g
           aria-label="Fund"
           transform="matrix(0.26458333,0,0,0.26458333,396.78142,261.68085)"
           id="text11051-0"
           style="font-size:192px;line-height:0;font-family:'Rubik Mono One';-inkscape-font-specification:'Rubik Mono One';text-align:justify;white-space:pre;shape-inside:url(#rect11053-6);display:inline;fill:#5457cd;stroke-width:2;stroke-linecap:round"><path
             d="m 547.50751,303.79421 h 84.79978 q 1.46666,0 2.53333,1.06666 1.06666,1.06667 1.06666,2.53333 v 20.26661 q 0,1.46667 -1.06666,2.53333 -1.06667,1.06667 -2.53333,1.06667 h -52.39986 v 8.53331 h 43.73322 q 1.46666,0 2.53332,1.06666 1.06667,1.06667 1.06667,2.53333 v 20.13328 q 0,1.46666 -1.06667,2.53333 -1.06666,1.06666 -2.53332,1.06666 h -43.73322 v 26.39993 q 0,1.46667 -1.06667,2.53333 -1.06666,1.06666 -2.53332,1.06666 h -28.79993 q -1.46666,0 -2.53333,-1.06666 -1.06666,-1.06666 -1.06666,-2.53333 V 307.3942 q 0,-1.46666 1.06666,-2.53333 1.06667,-1.06666 2.53333,-1.06666 z"
             style="font-size:133.333px;line-height:1.25"
             id="path3909" /><path
             d="m 736.04041,388.72733 q -13.06663,9.7333 -35.46658,9.7333 -22.39994,0 -35.59991,-9.7333 -13.06663,-9.73331 -13.06663,-30.39993 v -50.9332 q 0,-1.46666 1.06666,-2.53333 1.06667,-1.06666 2.53333,-1.06666 h 27.8666 q 1.46666,0 2.53332,1.06666 1.06667,1.06667 1.06667,2.53333 v 53.06653 q 0,5.46665 3.59999,8.39998 3.73332,2.93333 9.99997,2.93333 6.26665,0 9.86664,-2.93333 3.73333,-2.93333 3.73333,-8.39998 V 307.3942 q 0,-1.46666 1.06666,-2.53333 1.06667,-1.06666 2.53333,-1.06666 h 27.86659 q 1.46667,0 2.53333,1.06666 1.06666,1.06667 1.06666,2.53333 v 50.9332 q 0,20.66662 -13.19996,30.39993 z"
             style="font-size:133.333px;line-height:1.25"
             id="path3911" /><path
             d="m 830.84021,303.79421 h 24.79994 q 1.46666,0 2.53333,1.06666 1.06666,1.06667 1.06666,2.53333 v 86.13311 q 0,1.46667 -1.06666,2.53333 -1.06667,1.06666 -2.53333,1.06666 h -21.46661 q -3.19999,0 -5.33332,-2.79999 l -29.06659,-37.06657 v 36.26657 q 0,1.46667 -1.06667,2.53333 -1.06666,1.06666 -2.53332,1.06666 H 771.3737 q -1.46666,0 -2.53333,-1.06666 -1.06666,-1.06666 -1.06666,-2.53333 V 307.3942 q 0,-1.46666 1.06666,-2.53333 1.06667,-1.06666 2.53333,-1.06666 h 21.59994 q 3.2,0 5.19999,2.66666 l 29.06659,40.13323 v -39.1999 q 0,-1.46666 1.06667,-2.53333 1.06666,-1.06666 2.53332,-1.06666 z"
             style="font-size:133.333px;line-height:1.25"
             id="path3913" /><path
             d="m 884.30678,303.79421 h 42.53323 q 14.66663,0 25.4666,3.86666 10.79997,3.86665 17.46662,13.06663 6.66665,9.19998 6.66665,22.93327 v 13.59997 q 0,21.33328 -14.39996,31.06659 -13.19997,8.79997 -35.19991,8.79997 h -42.53323 q -1.46666,0 -2.53332,-1.06666 -1.06667,-1.06666 -1.06667,-2.53333 V 307.3942 q 0,-1.46666 1.06667,-2.53333 1.06666,-1.06666 2.53332,-1.06666 z m 31.06659,25.99993 v 41.33323 h 12.1333 q 6.26665,0 9.86665,-2.93333 3.73332,-3.06665 3.73332,-8.53331 v -18.39995 q 0,-5.46665 -3.73332,-8.39998 -3.6,-3.06666 -9.86665,-3.06666 z"
             style="font-size:133.333px;line-height:1.25"
             id="path3915" /></g><g
           aria-label="
Expenses"
           transform="matrix(0.26458333,0,0,0.26458333,397.59452,304.29649)"
           id="text11439-6"
           style="font-size:192px;line-height:0;font-family:'Ara Hamah 1982';-inkscape-font-specification:'Ara Hamah 1982, ';text-align:justify;white-space:pre;shape-inside:url(#rect11441-4);display:inline;fill:#ffffff;stroke-width:2;stroke-linecap:round"><path
             d="m 596.87822,263.87065 h -36.992 q -5.632,0 -9.6,3.968 -3.84,3.84 -3.84,9.344 v 28.672 q 0,1.92 1.92,1.92 h 48.512 v 9.6 h -48.512 q -1.92,0 -1.92,1.664 v 28.8 q 0,5.504 3.84,9.472 3.968,3.84 9.6,3.84 h 36.992 v 9.6 h -36.992 q -9.728,0 -16.384,-6.656 -6.656,-6.784 -6.656,-16.256 v -70.656 q 0,-9.6 6.656,-16.256 6.656,-6.784 16.384,-6.784 h 36.992 z"
             style="line-height:0.5"
             id="path3918" /><path
             d="m 619.91827,283.58265 14.336,33.408 q 2.176,5.12 2.176,10.368 0,5.12 -2.176,10.24 l -14.336,33.28 h -10.368 l 15.872,-37.12 q 1.28,-3.456 1.28,-6.4 0,-2.944 -1.28,-6.4 l -15.872,-37.376 z m 48.128,0 -15.872,37.376 q -1.28,3.456 -1.28,6.4 0,2.944 1.28,6.4 l 15.872,37.12 h -10.368 l -14.336,-33.28 q -2.176,-5.12 -2.176,-10.24 0,-5.248 2.176,-10.368 l 14.336,-33.408 z"
             style="line-height:0.5"
             id="path3920" /><path
             d="m 693.90241,294.84665 q 13.184,-13.184 31.872,-13.184 18.688,0 32,13.312 13.184,13.184 13.184,31.872 0,18.688 -13.184,31.872 -13.312,13.312 -32,13.312 -20.224,0 -34.176,-15.872 -0.256,-0.512 -1.024,-0.256 -0.384,0.384 -0.384,0.64 v 43.776 h -9.472 v -74.112 q 0,-18.304 13.184,-31.36 z m 31.872,-3.584 q -14.848,0 -25.216,10.368 -10.368,10.496 -10.368,25.216 0,14.464 10.368,25.088 10.368,10.368 25.216,10.368 14.976,0 25.216,-10.368 10.496,-10.496 10.496,-25.088 0,-14.72 -10.496,-25.216 -10.24,-10.368 -25.216,-10.368 z"
             style="line-height:0.5"
             id="path3922" /><path
             d="m 796.68647,294.97465 q 13.184,-13.312 31.872,-13.312 18.688,0 32,13.312 13.184,13.184 13.184,31.872 v 4.864 h -78.464 q -1.792,0 -1.536,1.664 2.304,12.416 12.16,20.736 9.984,8.192 22.656,8.192 10.752,0 19.584,-5.76 8.96,-5.888 13.184,-15.616 h 10.24 q -4.48,13.824 -16.512,22.528 -11.776,8.576 -26.496,8.576 -18.688,0 -31.872,-13.312 -13.184,-13.184 -13.184,-31.872 0,-18.688 13.184,-31.872 z m 31.872,-3.712 q -12.544,0 -22.656,8.192 -9.856,8.32 -12.16,20.736 -0.128,1.792 1.536,1.792 h 66.688 q 1.664,0 1.536,-1.792 -2.304,-12.416 -12.288,-20.736 -9.984,-8.192 -22.656,-8.192 z"
             style="line-height:0.5"
             id="path3924" /><path
             d="m 921.10253,281.66265 q 14.08,0 24.448,10.368 10.24,10.24 10.24,24.448 v 54.272 h -9.472 v -54.272 q 0,-10.368 -7.424,-17.792 -7.424,-7.424 -17.792,-7.424 -10.496,0 -17.92,7.424 -7.424,7.296 -7.424,17.792 v 54.272 h -9.472 v -54.272 q 0,-14.464 10.112,-24.448 10.24,-10.368 24.704,-10.368 z"
             style="line-height:0.5"
             id="path3926" /><path
             d="m 993.03862,281.66265 q 10.36798,0 17.53598,7.424 7.424,7.168 7.424,17.408 v 6.144 h -9.728 v -6.144 q 0,-6.272 -4.48,-10.752 -4.35198,-4.48 -10.62398,-4.48 -6.144,0 -10.752,4.352 -4.48,4.352 -4.48,10.368 0,9.728 9.216,13.312 l 15.48798,6.016 q 6.912,2.688 11.008,8.832 4.096,6.016 4.096,13.44 0,6.528 -3.2,12.16 -7.296,12.16 -21.37598,12.16 -10.368,0 -17.536,-7.168 -7.296,-7.296 -7.296,-17.664 v -6.144 h 9.6 v 6.144 q 0,6.272 4.48,10.752 4.48,4.48 10.624,4.48 6.144,0 10.62398,-4.352 4.608,-4.352 4.608,-10.368 0,-9.472 -9.21598,-13.312 l -15.488,-6.144 q -7.04,-2.816 -11.136,-8.704 -3.968,-6.016 -3.968,-13.44 0,-6.656 3.2,-12.16 7.296,-12.16 21.376,-12.16 z"
             style="line-height:0.5"
             id="path3928" /><path
             d="m 1043.5987,294.97465 q 13.184,-13.312 31.872,-13.312 18.688,0 32,13.312 13.184,13.184 13.184,31.872 v 4.864 h -78.464 q -1.792,0 -1.536,1.664 2.304,12.416 12.16,20.736 9.984,8.192 22.656,8.192 10.752,0 19.584,-5.76 8.96,-5.888 13.184,-15.616 h 10.24 q -4.48,13.824 -16.512,22.528 -11.776,8.576 -26.496,8.576 -18.688,0 -31.872,-13.312 -13.184,-13.184 -13.184,-31.872 0,-18.688 13.184,-31.872 z m 31.872,-3.712 q -12.544,0 -22.656,8.192 -9.856,8.32 -12.16,20.736 -0.128,1.792 1.536,1.792 h 66.688 q 1.664,0 1.536,-1.792 -2.304,-12.416 -12.288,-20.736 -9.984,-8.192 -22.656,-8.192 z"
             style="line-height:0.5"
             id="path3930" /><path
             d="m 1157.9028,281.66265 q 10.368,0 17.536,7.424 7.424,7.168 7.424,17.408 v 6.144 h -9.728 v -6.144 q 0,-6.272 -4.48,-10.752 -4.352,-4.48 -10.624,-4.48 -6.144,0 -10.752,4.352 -4.48,4.352 -4.48,10.368 0,9.728 9.216,13.312 l 15.488,6.016 q 6.912,2.688 11.008,8.832 4.096,6.016 4.096,13.44 0,6.528 -3.2,12.16 -7.296,12.16 -21.376,12.16 -10.368,0 -17.536,-7.168 -7.296,-7.296 -7.296,-17.664 v -6.144 h 9.6 v 6.144 q 0,6.272 4.48,10.752 4.48,4.48 10.624,4.48 6.144,0 10.624,-4.352 4.608,-4.352 4.608,-10.368 0,-9.472 -9.216,-13.312 l -15.488,-6.144 q -7.04,-2.816 -11.136,-8.704 -3.968,-6.016 -3.968,-13.44 0,-6.656 3.2,-12.16 7.296,-12.16 21.376,-12.16 z"
             style="line-height:0.5"
             id="path3932" /></g><g
           id="g4026-9"
           transform="matrix(0.67358259,0,0,0.67358259,451.37338,350.52937)"
           inkscape:export-filename="logo\Android Launcher 192 x 192.png"
           inkscape:export-xdpi="83.848442"
           inkscape:export-ydpi="83.848442"><g
             id="g10698-2-2"
             transform="translate(-148.17912,-110.95813)"><path
               id="path643-9-4-66"
               style="fill:#818cf8;fill-opacity:1;stroke-width:0.471592;stroke-linecap:round"
               d="m 171.61579,139.5661 a 6.6145833,6.6145833 0 0 0 -6.61458,6.61459 v 46.77079 a 6.6145833,6.6145833 0 0 0 6.61458,6.61458 h 46.77079 a 6.6145833,6.6145833 0 0 0 6.61458,-6.61458 v -17.44597 h -22.48183 c -0.12099,0 -0.24125,-0.003 -0.3607,-0.009 -0.11945,-0.006 -0.23778,-0.015 -0.35553,-0.0269 -0.11776,-0.0119 -0.23496,-0.0268 -0.35089,-0.0444 -0.11592,-0.0176 -0.23073,-0.0383 -0.34468,-0.0615 -0.11394,-0.0232 -0.22666,-0.0489 -0.33848,-0.0775 -0.11182,-0.0286 -0.22272,-0.0601 -0.33228,-0.0941 -0.10955,-0.0339 -0.2179,-0.0705 -0.32504,-0.10955 -0.10715,-0.0391 -0.21323,-0.0804 -0.31781,-0.12454 -0.10459,-0.0441 -0.20766,-0.0911 -0.30955,-0.14005 -0.10188,-0.0489 -0.20274,-0.0998 -0.30179,-0.15347 -0.099,-0.0537 -0.19643,-0.10971 -0.29248,-0.16795 -0.0961,-0.0583 -0.19078,-0.11871 -0.28371,-0.18139 -0.0929,-0.0627 -0.18424,-0.12786 -0.27388,-0.19482 -0.0897,-0.067 -0.17733,-0.13612 -0.26355,-0.20722 -0.0862,-0.0711 -0.17056,-0.14401 -0.25322,-0.21911 -0.0827,-0.0751 -0.16392,-0.15204 -0.24288,-0.23099 -0.079,-0.0789 -0.15589,-0.1597 -0.23099,-0.24236 -0.0751,-0.0827 -0.14801,-0.16751 -0.21911,-0.25374 -0.0711,-0.0862 -0.14026,-0.1739 -0.20722,-0.26354 -0.067,-0.0897 -0.13215,-0.18097 -0.19482,-0.27389 -0.0627,-0.0929 -0.12314,-0.18765 -0.18139,-0.2837 -0.0582,-0.0961 -0.11427,-0.19345 -0.16794,-0.29249 -0.0537,-0.099 -0.10453,-0.1999 -0.15348,-0.30179 -0.049,-0.10189 -0.096,-0.20496 -0.14005,-0.30954 -0.0441,-0.10459 -0.0855,-0.21067 -0.12454,-0.31781 -0.0391,-0.10715 -0.0756,-0.21549 -0.10955,-0.32505 -0.0339,-0.10955 -0.0654,-0.21994 -0.0941,-0.33176 -0.0286,-0.11182 -0.0543,-0.22505 -0.0775,-0.339 -0.0232,-0.11394 -0.0439,-0.22876 -0.0615,-0.34468 -0.0176,-0.11592 -0.0326,-0.23313 -0.0444,-0.35088 -0.0119,-0.11776 -0.0209,-0.23609 -0.0269,-0.35554 -0.006,-0.11945 -0.009,-0.2397 -0.009,-0.3607 0,-0.12099 0.003,-0.24125 0.009,-0.3607 0.006,-0.11945 0.015,-0.23829 0.0269,-0.35605 0.0119,-0.11776 0.0268,-0.23444 0.0444,-0.35037 0.0176,-0.11592 0.0383,-0.23073 0.0615,-0.34468 0.0232,-0.11394 0.0489,-0.22718 0.0775,-0.339 0.0286,-0.11182 0.0601,-0.2222 0.0941,-0.33176 0.0339,-0.10955 0.0705,-0.21842 0.10955,-0.32556 0.0391,-0.10714 0.0804,-0.21271 0.12454,-0.31729 0.0441,-0.10459 0.0911,-0.20818 0.14005,-0.31006 0.0489,-0.10189 0.0998,-0.20223 0.15348,-0.30128 0.0537,-0.099 0.1097,-0.19643 0.16794,-0.29249 0.0583,-0.0961 0.11871,-0.19078 0.18139,-0.2837 0.0627,-0.0929 0.12786,-0.18424 0.19482,-0.27388 0.067,-0.0897 0.13612,-0.17784 0.20722,-0.26407 0.0711,-0.0862 0.14401,-0.17055 0.21911,-0.25321 0.0751,-0.0827 0.15204,-0.16341 0.23099,-0.24237 0.079,-0.079 0.16022,-0.15589 0.24288,-0.23099 0.0827,-0.0751 0.16699,-0.14852 0.25322,-0.21963 0.0862,-0.0711 0.1739,-0.14026 0.26355,-0.20722 0.0896,-0.067 0.18096,-0.13163 0.27388,-0.1943 0.0929,-0.0627 0.18765,-0.12314 0.28371,-0.18139 0.096,-0.0582 0.19344,-0.11427 0.29248,-0.16794 0.0991,-0.0537 0.19991,-0.10505 0.30179,-0.154 0.10189,-0.049 0.20496,-0.0954 0.30955,-0.13953 0.10458,-0.0441 0.21066,-0.0855 0.31781,-0.12454 0.10714,-0.0391 0.21549,-0.0756 0.32504,-0.10955 0.10956,-0.0339 0.22046,-0.0654 0.33228,-0.094 0.11182,-0.0286 0.22454,-0.0548 0.33848,-0.078 0.11395,-0.0232 0.22876,-0.0434 0.34468,-0.061 0.11593,-0.0176 0.23313,-0.0325 0.35089,-0.0444 0.11775,-0.0119 0.23608,-0.0209 0.35553,-0.0269 0.11945,-0.006 0.23971,-0.009 0.3607,-0.009 h 22.48183 v -15.34686 a 6.6145833,6.6145833 0 0 0 -6.61458,-6.61459 z" /><path
               style="fill:#4f46e5;fill-opacity:1;stroke-width:0.362245;stroke-linecap:round"
               id="rect423-6-2-9"
               width="60"
               height="35.401581"
               x="437.26181"
               y="269.59409"
               transform="matrix(1,0,-0.89093497,0.4541309,0,0)"
               d="m 443.87639,269.59409 h 46.77084 a 6.6145833,6.6145833 45 0 1 6.61458,6.61458 v 22.17241 a 6.6145833,6.6145833 135 0 1 -6.61458,6.61459 h -46.77084 a 6.6145833,6.6145833 45 0 1 -6.61458,-6.61459 v -22.17241 a 6.6145833,6.6145833 135 0 1 6.61458,-6.61458 z"
               sodipodi:type="rect"
               inkscape:path-effect="#path-effect429-9-2-5" /><path
               id="path698-1-7-93"
               style="fill:#6366f1;fill-opacity:1;stroke-width:0.341921;stroke-linecap:round"
               d="m 254.07432,125.84395 a 4.8870513,7.9763497 31.495498 0 0 -2.36729,0.64905 l -19.75435,10.06915 a 4.8870513,7.9763497 31.495498 0 0 -5.89318,9.61854 v 46.77079 a 4.8870513,7.9763497 31.495498 0 0 5.89318,3.61115 l 19.75435,-10.06916 a 4.8870513,7.9763497 31.495498 0 0 5.89318,-9.61853 v -46.77079 a 4.8870513,7.9763497 31.495498 0 0 -3.52589,-4.2602 z m -7.93181,24.93542 v 13.97796 l -20.08146,10.69392 v -13.97796 z" /><circle
               style="fill:#ffffff;fill-opacity:1;stroke-width:0.319806;stroke-linecap:round"
               id="path555-9-6-4"
               cx="202.52165"
               cy="168.51671"
               r="6" /></g><g
             id="g2268-8"
             transform="matrix(0.09393299,0,0,0.09369098,15.931093,-22.552107)"><path
               class="a"
               d="m 447.5,411.6 v 31.6 c 0,3 -1.6,5.9 -4.4,8.7 q -1.3,1.1 -2.9,2.3 c -2,1.5 -4.4,2.9 -7.2,4.2 q -1.3,0.6 -2.8,1.3 c -3.4,1.4 -7.2,2.8 -11.5,4 q -1.3,0.4 -2.7,0.8 -7,1.9 -15.1,3.4 -1.4,0.2 -2.8,0.5 c -4.5,0.7 -9.1,1.4 -13.9,1.9 -0.9,0.1 -1.9,0.2 -2.8,0.3 q -4.8,0.4 -9.9,0.8 -1.4,0.1 -2.8,0.1 -6.3,0.4 -12.8,0.5 -1.4,0 -2.8,0 h -2 q -6.2,0 -12.1,-0.2 -1.4,-0.1 -2.8,-0.1 -6.1,-0.3 -11.9,-0.8 -1.4,-0.1 -2.8,-0.3 -4,-0.4 -7.8,-0.8 -1.4,-0.2 -2.8,-0.4 -4.9,-0.7 -9.5,-1.5 -1.4,-0.2 -2.8,-0.5 -3.9,-0.8 -7.6,-1.7 -1.4,-0.3 -2.8,-0.7 -4.6,-1.1 -8.7,-2.5 -1.4,-0.4 -2.8,-0.9 -4.3,-1.6 -7.8,-3.3 -1.5,-0.7 -2.8,-1.5 -3.6,-1.9 -6,-4 -1.7,-1.4 -2.9,-2.9 c -1.7,-2.1 -2.6,-4.4 -2.6,-6.7 0,-9.3 0,-31.6 0,-31.6 z"
               id="path1397-8"
               style="fill:#fdc11f" /><path
               class="b"
               d="m 447.5,411.7 c 0,14 -43.2,25.4 -96.4,25.4 -53.3,0 -96.5,-11.4 -96.5,-25.4 0,-14.1 43.2,-25.5 96.5,-25.5 53.2,0 96.4,11.4 96.4,25.5 z"
               id="path1399-9"
               style="fill:#ffdd17" /><path
               class="c"
               d="m 430.2,408.3 c 0,9.6 -35.4,17.5 -79.1,17.5 -43.8,0 -79.2,-7.9 -79.2,-17.5 0,-9.7 35.4,-17.6 79.2,-17.6 43.7,0 79.1,7.9 79.1,17.6 z"
               id="path1401-5"
               style="fill:#fece1b" /><path
               class="d"
               d="m 271.9,408.3 c 0,-9.7 35.4,-17.6 79.2,-17.6 43.7,0 79.1,7.9 79.1,17.6 0,1.4 -0.8,2.9 -2.4,4.3 -8.7,-7.6 -39.7,-13.3 -76.7,-13.3 -37,0 -68.1,5.7 -76.8,13.3 -1.6,-1.4 -2.4,-2.9 -2.4,-4.3 z"
               id="path1403-6"
               style="fill:#faa926" /><path
               class="d"
               d="m 260.1,425.8 v 27 q -1.7,-1.4 -2.9,-2.9 v -24.1 z"
               id="path1405-9"
               style="fill:#faa926" /><path
               class="d"
               d="m 268.9,433.7 v 24.6 q -1.5,-0.7 -2.8,-1.5 v -23.1 z"
               id="path1407-8"
               style="fill:#faa926" /><path
               class="d"
               d="m 279.5,438.6 v 23.9 q -1.4,-0.4 -2.8,-0.9 v -23 z"
               id="path1409-0"
               style="fill:#faa926" /><path
               class="d"
               d="m 291,441.8 v 23.9 q -1.4,-0.3 -2.8,-0.7 v -23.2 z"
               id="path1411-8"
               style="fill:#faa926" /><path
               class="d"
               d="m 301.4,444.9 v 23 q -1.4,-0.2 -2.8,-0.5 v -22.5 z"
               id="path1413-24"
               style="fill:#faa926" /><path
               class="d"
               d="m 313.7,447 v 22.8 q -1.4,-0.2 -2.8,-0.4 V 447 Z"
               id="path1415-5"
               style="fill:#faa926" /><path
               class="d"
               d="m 324.3,447 v 23.9 q -1.4,-0.1 -2.8,-0.3 V 447 Z"
               id="path1417-3"
               style="fill:#faa926" /><path
               class="d"
               d="m 339,447 v 24.8 q -1.4,-0.1 -2.8,-0.1 V 447 Z"
               id="path1419-4"
               style="fill:#faa926" /><path
               class="d"
               d="M 355.9,444.9 V 472 q -1.4,0 -2.8,0 v -27.1 z"
               id="path1421-1"
               style="fill:#faa926" /><path
               class="d"
               d="m 371.5,441.8 v 29.6 q -1.4,0.1 -2.8,0.1 v -29.7 z"
               id="path1423-88"
               style="fill:#faa926" /><path
               class="d"
               d="m 384.2,441.8 v 28.5 c -0.9,0.1 -1.9,0.2 -2.8,0.3 v -28.8 z"
               id="path1425-5"
               style="fill:#faa926" /><path
               class="d"
               d="m 400.9,438.6 v 29.3 q -1.4,0.2 -2.8,0.5 v -29.8 z"
               id="path1427-73"
               style="fill:#faa926" /><path
               class="d"
               d="m 418.7,435.5 v 28.2 q -1.3,0.4 -2.7,0.8 v -29 z"
               id="path1429-54"
               style="fill:#faa926" /><path
               class="d"
               d="m 433,427.9 v 30.5 q -1.3,0.6 -2.8,1.3 v -31.8 z"
               id="path1431-8"
               style="fill:#faa926" /><path
               class="d"
               d="m 443.1,422.7 v 29.2 q -1.3,1.1 -2.9,2.3 v -31.5 z"
               id="path1433-0"
               style="fill:#faa926" /><path
               class="e"
               d="m 447.5,429.3 v 13.9 c 0,3 -1.6,5.9 -4.4,8.7 q -1.3,1.1 -2.9,2.3 c -2,1.5 -4.4,2.9 -7.2,4.2 q -1.3,0.6 -2.8,1.3 c -3.4,1.4 -7.2,2.8 -11.5,4 q -1.3,0.4 -2.7,0.8 -7,1.9 -15.1,3.4 -1.4,0.2 -2.8,0.5 c -4.5,0.7 -9.1,1.4 -13.9,1.9 -0.9,0.1 -1.9,0.2 -2.8,0.3 q -4.8,0.4 -9.9,0.8 -1.4,0.1 -2.8,0.1 -6.3,0.4 -12.8,0.5 -1.4,0 -2.8,0 h -2 q -6.2,0 -12.1,-0.2 -1.4,-0.1 -2.8,-0.1 -6.1,-0.3 -11.9,-0.8 -1.4,-0.1 -2.8,-0.3 -4,-0.4 -7.8,-0.8 -1.4,-0.2 -2.8,-0.4 -4.9,-0.7 -9.5,-1.5 -1.4,-0.2 -2.8,-0.5 -3.9,-0.8 -7.6,-1.7 -1.4,-0.3 -2.8,-0.7 -4.6,-1.1 -8.7,-2.5 -1.4,-0.4 -2.8,-0.9 -4.3,-1.6 -7.8,-3.3 -1.5,-0.7 -2.8,-1.5 -3.6,-1.9 -6,-4 -1.7,-1.4 -2.9,-2.9 c -1.7,-2.1 -2.6,-4.4 -2.6,-6.7 0,-3.5 0,-8.7 0,-13.9 0,2.3 0.9,4.5 2.6,6.7 q 1.2,1.4 2.9,2.8 2.4,2.1 6,4.1 1.3,0.7 2.8,1.4 3.5,1.8 7.8,3.3 1.4,0.5 2.8,1 4.1,1.3 8.7,2.5 1.4,0.3 2.8,0.7 3.7,0.9 7.6,1.6 1.4,0.3 2.8,0.5 4.6,0.9 9.5,1.5 1.4,0.2 2.8,0.4 3.8,0.5 7.8,0.9 1.4,0.1 2.8,0.2 5.8,0.5 11.9,0.8 1.4,0.1 2.8,0.1 5.9,0.2 12.1,0.3 h 2 q 1.4,-0.1 2.8,-0.1 6.5,-0.1 12.8,-0.4 1.4,-0.1 2.8,-0.2 5.1,-0.3 9.9,-0.8 1.4,-0.1 2.8,-0.3 c 4.8,-0.5 9.4,-1.2 13.9,-1.9 q 1.4,-0.2 2.8,-0.5 c 5.4,-1 10.4,-2.1 15.1,-3.3 q 1.4,-0.4 2.7,-0.9 c 4.3,-1.2 8.1,-2.5 11.5,-4 q 1.5,-0.6 2.8,-1.3 c 2.8,-1.3 5.2,-2.7 7.2,-4.2 q 1.6,-1.1 2.9,-2.3 c 2.8,-2.7 4.4,-5.6 4.4,-8.6 z"
               id="path1435-2"
               style="mix-blend-mode:multiply;fill:#e5d4d4" /><path
               class="a"
               d="m 439.2,373.3 v 31.6 c 0,3 -1.6,5.9 -4.4,8.6 q -1.3,1.2 -2.9,2.3 -3,2.2 -7.2,4.3 -1.3,0.6 -2.8,1.2 c -3.4,1.5 -7.2,2.8 -11.5,4 q -1.3,0.5 -2.8,0.9 -6.9,1.9 -15,3.3 -1.4,0.3 -2.8,0.5 c -4.5,0.7 -9.1,1.4 -13.9,1.9 q -1.4,0.2 -2.8,0.3 -4.8,0.5 -9.9,0.8 -1.4,0.1 -2.8,0.2 -6.3,0.3 -12.8,0.4 -1.4,0 -2.8,0.1 h -2.1 q -6.1,-0.1 -12,-0.3 c -1,0 -1.9,-0.1 -2.8,-0.1 q -6.1,-0.3 -11.9,-0.8 -1.4,-0.1 -2.8,-0.2 c -2.7,-0.3 -5.3,-0.6 -7.8,-0.9 q -1.4,-0.2 -2.8,-0.4 -4.9,-0.6 -9.5,-1.5 -1.4,-0.2 -2.8,-0.5 -4,-0.7 -7.6,-1.6 -1.5,-0.4 -2.8,-0.7 -4.6,-1.2 -8.7,-2.5 -1.4,-0.5 -2.8,-1 -4.3,-1.5 -7.8,-3.3 -1.5,-0.7 -2.8,-1.4 -3.6,-2 -6.1,-4.1 -1.6,-1.4 -2.8,-2.8 c -1.7,-2.2 -2.6,-4.4 -2.6,-6.7 0,-9.4 0,-31.6 0,-31.6 z"
               id="path1437-09"
               style="fill:#fdc11f" /><path
               class="b"
               d="m 439.2,373.3 c 0,14.1 -43.2,25.5 -96.5,25.5 -53.2,0 -96.4,-11.4 -96.4,-25.5 0,-14.1 43.2,-25.5 96.4,-25.5 53.3,0 96.5,11.4 96.5,25.5 z"
               id="path1439-8"
               style="fill:#ffdd17" /><path
               class="c"
               d="m 421.9,369.9 c 0,9.7 -35.4,17.5 -79.2,17.5 -43.7,0 -79.1,-7.8 -79.1,-17.5 0,-9.7 35.4,-17.5 79.1,-17.5 43.8,0 79.2,7.8 79.2,17.5 z"
               id="path1441-5"
               style="fill:#fece1b" /><path
               class="d"
               d="m 263.6,369.9 c 0,-9.7 35.4,-17.5 79.1,-17.5 43.8,0 79.2,7.8 79.2,17.5 0,1.5 -0.8,2.9 -2.4,4.3 -8.7,-7.6 -39.8,-13.2 -76.8,-13.2 -37,0 -68,5.6 -76.7,13.2 -1.6,-1.4 -2.4,-2.8 -2.4,-4.3 z"
               id="path1443-10"
               style="fill:#faa926" /><path
               class="d"
               d="m 251.7,387.4 v 27 q -1.6,-1.4 -2.8,-2.8 v -24.2 z"
               id="path1445-50"
               style="fill:#faa926" /><path
               class="d"
               d="m 260.6,395.4 v 24.5 q -1.5,-0.7 -2.8,-1.4 v -23.1 z"
               id="path1447-8"
               style="fill:#faa926" /><path
               class="d"
               d="m 271.2,400.2 v 24 q -1.4,-0.5 -2.8,-1 v -23 z"
               id="path1449-8"
               style="fill:#faa926" /><path
               class="d"
               d="m 282.7,403.5 v 23.9 q -1.5,-0.4 -2.8,-0.7 v -23.2 z"
               id="path1451-5"
               style="fill:#faa926" /><path
               class="d"
               d="m 293.1,406.6 v 22.9 q -1.4,-0.2 -2.8,-0.5 v -22.4 z"
               id="path1453-9"
               style="fill:#faa926" /><path
               class="d"
               d="m 305.4,408.7 v 22.7 q -1.4,-0.2 -2.8,-0.4 v -22.3 z"
               id="path1455-6"
               style="fill:#faa926" /><path
               class="d"
               d="m 316,408.7 v 23.8 q -1.4,-0.1 -2.8,-0.2 v -23.6 z"
               id="path1457-66"
               style="fill:#faa926" /><path
               class="d"
               d="m 330.7,408.7 v 24.7 c -1,0 -1.9,-0.1 -2.8,-0.1 v -24.6 z"
               id="path1459-73"
               style="fill:#faa926" /><path
               class="d"
               d="m 347.6,406.6 v 27 q -1.4,0 -2.8,0.1 v -27.1 z"
               id="path1461-1"
               style="fill:#faa926" /><path
               class="d"
               d="M 363.2,403.5 V 433 q -1.4,0.1 -2.8,0.2 v -29.7 z"
               id="path1463-4"
               style="fill:#faa926" /><path
               class="d"
               d="m 375.9,403.5 v 28.4 q -1.4,0.2 -2.8,0.3 v -28.7 z"
               id="path1465-9"
               style="fill:#faa926" /><path
               class="d"
               d="m 392.6,400.2 v 29.3 q -1.4,0.3 -2.8,0.5 v -29.8 z"
               id="path1467-3"
               style="fill:#faa926" /><path
               class="d"
               d="m 410.4,397.1 v 28.2 q -1.3,0.5 -2.8,0.9 v -29.1 z"
               id="path1469-68"
               style="fill:#faa926" /><path
               class="d"
               d="m 424.7,389.5 v 30.6 q -1.3,0.6 -2.8,1.2 v -31.8 z"
               id="path1471-4"
               style="fill:#faa926" /><path
               class="d"
               d="m 434.8,384.3 v 29.2 q -1.3,1.2 -2.9,2.3 v -31.5 z"
               id="path1473-2"
               style="fill:#faa926" /><path
               class="e"
               d="m 439.2,390.9 v 14 c 0,3 -1.6,5.9 -4.4,8.6 q -1.3,1.2 -2.9,2.3 -3,2.2 -7.2,4.3 -1.3,0.6 -2.8,1.2 c -3.4,1.5 -7.2,2.8 -11.5,4 q -1.3,0.5 -2.8,0.9 -6.9,1.9 -15,3.3 -1.4,0.3 -2.8,0.5 c -4.5,0.7 -9.1,1.4 -13.9,1.9 q -1.4,0.2 -2.8,0.3 -4.8,0.5 -9.9,0.8 -1.4,0.1 -2.8,0.2 -6.3,0.3 -12.8,0.4 -1.4,0 -2.8,0.1 h -2.1 q -6.1,-0.1 -12,-0.3 c -1,0 -1.9,-0.1 -2.8,-0.1 q -6.1,-0.3 -11.9,-0.8 -1.4,-0.1 -2.8,-0.2 c -2.7,-0.3 -5.3,-0.6 -7.8,-0.9 q -1.4,-0.2 -2.8,-0.4 -4.9,-0.6 -9.5,-1.5 -1.4,-0.2 -2.8,-0.5 -4,-0.7 -7.6,-1.6 -1.5,-0.4 -2.8,-0.7 -4.6,-1.2 -8.7,-2.5 -1.4,-0.5 -2.8,-1 -4.3,-1.5 -7.8,-3.3 -1.5,-0.7 -2.8,-1.4 -3.6,-2 -6.1,-4.1 -1.6,-1.4 -2.8,-2.8 c -1.7,-2.2 -2.6,-4.4 -2.6,-6.7 0,-3.5 0,-8.8 0,-14 0,2.3 0.9,4.5 2.6,6.7 q 1.2,1.4 2.8,2.9 2.5,2.1 6.1,4 1.3,0.8 2.8,1.5 3.5,1.7 7.8,3.2 1.4,0.5 2.8,1 4.1,1.4 8.7,2.5 1.3,0.4 2.8,0.7 3.6,0.9 7.6,1.7 1.4,0.2 2.8,0.5 4.6,0.8 9.5,1.5 1.4,0.2 2.8,0.4 3.8,0.4 7.8,0.8 1.4,0.1 2.8,0.3 5.8,0.5 11.9,0.8 1.4,0 2.8,0.1 5.9,0.2 12,0.2 h 2.1 q 1.4,0 2.8,0 6.5,-0.2 12.8,-0.5 1.4,-0.1 2.8,-0.2 5.1,-0.3 9.9,-0.8 1.4,-0.1 2.8,-0.2 c 4.8,-0.6 9.4,-1.2 13.9,-2 q 1.4,-0.2 2.8,-0.4 8.1,-1.5 15,-3.4 1.5,-0.4 2.8,-0.8 c 4.3,-1.2 8.1,-2.6 11.5,-4 q 1.5,-0.7 2.8,-1.3 4.2,-2 7.2,-4.2 1.6,-1.2 2.9,-2.4 c 2.8,-2.7 4.4,-5.6 4.4,-8.6 z"
               id="path1475-51"
               style="mix-blend-mode:multiply;fill:#e5d4d4" /><path
               class="a"
               d="m 447.5,333 v 31.6 c 0,3 -1.6,5.9 -4.4,8.6 q -1.3,1.2 -2.9,2.4 c -2,1.4 -4.4,2.8 -7.2,4.2 q -1.3,0.6 -2.8,1.2 c -3.4,1.5 -7.2,2.9 -11.5,4.1 q -1.3,0.4 -2.7,0.8 c -4.7,1.2 -9.7,2.4 -15.1,3.3 q -1.4,0.3 -2.8,0.5 c -4.5,0.8 -9.1,1.4 -13.9,1.9 q -1.4,0.2 -2.8,0.3 -4.8,0.5 -9.9,0.8 -1.4,0.1 -2.8,0.2 -6.3,0.3 -12.8,0.4 -1.4,0.1 -2.8,0.1 h -2 q -6.2,0 -12.1,-0.2 -1.4,-0.1 -2.8,-0.2 -6.1,-0.3 -11.9,-0.8 -1.4,-0.1 -2.8,-0.2 -4,-0.4 -7.8,-0.9 -1.4,-0.2 -2.8,-0.3 -4.9,-0.7 -9.5,-1.5 -1.4,-0.3 -2.8,-0.6 -3.9,-0.7 -7.6,-1.6 -1.4,-0.3 -2.8,-0.7 -4.6,-1.2 -8.7,-2.5 -1.4,-0.5 -2.8,-1 -4.3,-1.5 -7.8,-3.2 -1.5,-0.7 -2.8,-1.5 -3.6,-1.9 -6,-4.1 -1.7,-1.4 -2.9,-2.8 c -1.7,-2.2 -2.6,-4.4 -2.6,-6.7 0,-9.4 0,-31.6 0,-31.6 z"
               id="path1477-1"
               style="fill:#fdc11f" /><path
               class="b"
               d="m 447.5,333 c 0,14.1 -43.2,25.5 -96.4,25.5 -53.3,0 -96.5,-11.4 -96.5,-25.5 0,-14.1 43.2,-25.5 96.5,-25.5 53.2,0 96.4,11.4 96.4,25.5 z"
               id="path1479-79"
               style="fill:#ffdd17" /><path
               class="c"
               d="m 430.2,329.6 c 0,9.7 -35.4,17.6 -79.1,17.6 -43.8,0 -79.2,-7.9 -79.2,-17.6 0,-9.7 35.4,-17.5 79.2,-17.5 43.7,0 79.1,7.8 79.1,17.5 z"
               id="path1481-4"
               style="fill:#fece1b" /><path
               class="d"
               d="m 271.9,329.6 c 0,-9.7 35.4,-17.5 79.2,-17.5 43.7,0 79.1,7.8 79.1,17.5 0,1.5 -0.8,3 -2.4,4.3 -8.7,-7.6 -39.7,-13.2 -76.7,-13.2 -37,0 -68.1,5.6 -76.8,13.2 -1.6,-1.3 -2.4,-2.8 -2.4,-4.3 z"
               id="path1483-8"
               style="fill:#faa926" /><path
               class="d"
               d="m 260.1,347.2 v 26.9 q -1.7,-1.4 -2.9,-2.8 v -24.1 z"
               id="path1485-2"
               style="fill:#faa926" /><path
               class="d"
               d="m 268.9,355.1 v 24.6 q -1.5,-0.7 -2.8,-1.5 v -23.1 z"
               id="path1487-0"
               style="fill:#faa926" /><path
               class="d"
               d="m 279.5,359.9 v 24 q -1.4,-0.5 -2.8,-1 v -23 z"
               id="path1489-7"
               style="fill:#faa926" /><path
               class="d"
               d="m 291,363.2 v 23.9 q -1.4,-0.3 -2.8,-0.7 v -23.2 z"
               id="path1491-0"
               style="fill:#faa926" /><path
               class="d"
               d="m 301.4,366.3 v 23 q -1.4,-0.3 -2.8,-0.6 v -22.4 z"
               id="path1493-9"
               style="fill:#faa926" /><path
               class="d"
               d="m 313.7,368.4 v 22.7 q -1.4,-0.2 -2.8,-0.3 v -22.4 z"
               id="path1495-7"
               style="fill:#faa926" /><path
               class="d"
               d="m 324.3,368.4 v 23.8 q -1.4,-0.1 -2.8,-0.2 v -23.6 z"
               id="path1497-2"
               style="fill:#faa926" /><path
               class="d"
               d="m 339,368.4 v 24.8 q -1.4,-0.1 -2.8,-0.2 v -24.6 z"
               id="path1499-2"
               style="fill:#faa926" /><path
               class="d"
               d="m 355.9,366.3 v 27 q -1.4,0.1 -2.8,0.1 v -27.1 z"
               id="path1501-49"
               style="fill:#faa926" /><path
               class="d"
               d="m 371.5,363.2 v 29.5 q -1.4,0.1 -2.8,0.2 v -29.7 z"
               id="path1503-11"
               style="fill:#faa926" /><path
               class="d"
               d="m 384.2,363.2 v 28.4 q -1.4,0.2 -2.8,0.3 v -28.7 z"
               id="path1505-77"
               style="fill:#faa926" /><path
               class="d"
               d="m 400.9,359.9 v 29.3 q -1.4,0.3 -2.8,0.5 v -29.8 z"
               id="path1507-7"
               style="fill:#faa926" /><path
               class="d"
               d="m 418.7,356.8 v 28.3 q -1.3,0.4 -2.7,0.8 v -29.1 z"
               id="path1509-25"
               style="fill:#faa926" /><path
               class="d"
               d="m 433,349.2 v 30.6 q -1.3,0.6 -2.8,1.2 v -31.8 z"
               id="path1511-7"
               style="fill:#faa926" /><path
               class="d"
               d="m 443.1,344 v 29.2 q -1.3,1.2 -2.9,2.4 V 344 Z"
               id="path1513-54"
               style="fill:#faa926" /><path
               class="e"
               d="m 447.5,350.6 v 14 c 0,3 -1.6,5.9 -4.4,8.6 q -1.3,1.2 -2.9,2.4 c -2,1.4 -4.4,2.8 -7.2,4.2 q -1.3,0.6 -2.8,1.2 c -3.4,1.5 -7.2,2.9 -11.5,4.1 q -1.3,0.4 -2.7,0.8 c -4.7,1.2 -9.7,2.4 -15.1,3.3 q -1.4,0.3 -2.8,0.5 c -4.5,0.8 -9.1,1.4 -13.9,1.9 q -1.4,0.2 -2.8,0.3 -4.8,0.5 -9.9,0.8 -1.4,0.1 -2.8,0.2 -6.3,0.3 -12.8,0.4 -1.4,0.1 -2.8,0.1 h -2 q -6.2,0 -12.1,-0.2 -1.4,-0.1 -2.8,-0.2 -6.1,-0.3 -11.9,-0.8 -1.4,-0.1 -2.8,-0.2 -4,-0.4 -7.8,-0.9 -1.4,-0.2 -2.8,-0.3 -4.9,-0.7 -9.5,-1.5 -1.4,-0.3 -2.8,-0.6 -3.9,-0.7 -7.6,-1.6 -1.4,-0.3 -2.8,-0.7 -4.6,-1.2 -8.7,-2.5 -1.4,-0.5 -2.8,-1 -4.3,-1.5 -7.8,-3.2 -1.5,-0.7 -2.8,-1.5 -3.6,-1.9 -6,-4.1 -1.7,-1.4 -2.9,-2.8 c -1.7,-2.2 -2.6,-4.4 -2.6,-6.7 0,-3.5 0,-8.7 0,-14 0,2.3 0.9,4.6 2.6,6.7 q 1.2,1.5 2.9,2.9 2.4,2.1 6,4 1.3,0.8 2.8,1.5 3.5,1.7 7.8,3.3 1.4,0.5 2.8,0.9 4.1,1.4 8.7,2.5 1.4,0.4 2.8,0.7 3.7,0.9 7.6,1.7 1.4,0.3 2.8,0.5 4.6,0.8 9.5,1.5 1.4,0.2 2.8,0.4 c 2.5,0.3 5.1,0.6 7.8,0.8 q 1.4,0.2 2.8,0.3 5.8,0.5 11.9,0.8 1.4,0 2.8,0.1 5.9,0.2 12.1,0.2 h 2 q 1.4,0 2.8,0 6.5,-0.1 12.8,-0.5 1.4,0 2.8,-0.1 5.1,-0.4 9.9,-0.8 1.4,-0.2 2.8,-0.3 c 4.8,-0.5 9.4,-1.2 13.9,-1.9 q 1.4,-0.3 2.8,-0.5 8.1,-1.5 15.1,-3.4 1.4,-0.4 2.7,-0.8 c 4.3,-1.2 8.1,-2.6 11.5,-4 q 1.5,-0.7 2.8,-1.3 c 2.8,-1.3 5.2,-2.7 7.2,-4.2 q 1.6,-1.2 2.9,-2.3 c 2.8,-2.8 4.4,-5.7 4.4,-8.7 z"
               id="path1515-3"
               style="mix-blend-mode:multiply;fill:#e5d4d4" /><path
               class="a"
               d="m 457.9,294.6 v 31.6 c 0,3 -1.6,5.9 -4.5,8.7 q -1.2,1.1 -2.8,2.3 -3,2.2 -7.2,4.2 -1.3,0.6 -2.8,1.3 c -3.4,1.4 -7.2,2.8 -11.5,4 q -1.3,0.4 -2.8,0.8 -6.9,1.9 -15,3.4 -1.4,0.2 -2.9,0.5 c -4.4,0.7 -9,1.4 -13.8,1.9 q -1.4,0.1 -2.8,0.3 -4.8,0.4 -9.9,0.8 -1.4,0.1 -2.8,0.1 -6.3,0.4 -12.8,0.5 -1.4,0 -2.9,0 h -2 q -6.1,0 -12,-0.2 -1.4,-0.1 -2.8,-0.1 -6.1,-0.3 -11.9,-0.8 -1.4,-0.1 -2.8,-0.3 -4,-0.4 -7.8,-0.8 -1.4,-0.2 -2.8,-0.4 -4.9,-0.7 -9.5,-1.5 -1.4,-0.2 -2.8,-0.5 -4,-0.8 -7.6,-1.7 -1.5,-0.3 -2.8,-0.7 -4.6,-1.1 -8.7,-2.5 -1.4,-0.4 -2.8,-0.9 -4.3,-1.6 -7.8,-3.3 -1.5,-0.7 -2.9,-1.5 -3.5,-1.9 -6,-4 -1.6,-1.4 -2.8,-2.9 c -1.7,-2.1 -2.6,-4.4 -2.6,-6.7 0,-9.3 0,-31.6 0,-31.6 z"
               id="path1517-8"
               style="fill:#fdc11f" /><path
               class="b"
               d="m 457.9,294.7 c 0,14 -43.2,25.5 -96.5,25.5 -53.2,0 -96.4,-11.5 -96.4,-25.5 0,-14.1 43.2,-25.5 96.4,-25.5 53.3,0 96.5,11.4 96.5,25.5 z"
               id="path1519-75"
               style="fill:#ffdd17" /><path
               class="c"
               d="m 440.6,291.3 c 0,9.6 -35.4,17.5 -79.2,17.5 -43.7,0 -79.1,-7.9 -79.1,-17.5 0,-9.7 35.4,-17.6 79.1,-17.6 43.8,0 79.2,7.9 79.2,17.6 z"
               id="path1521-7"
               style="fill:#fece1b" /><path
               class="d"
               d="m 282.3,291.3 c 0,-9.7 35.4,-17.6 79.1,-17.6 43.8,0 79.2,7.9 79.2,17.6 0,1.5 -0.9,2.9 -2.4,4.3 -8.7,-7.6 -39.8,-13.3 -76.8,-13.3 -37,0 -68,5.7 -76.7,13.3 -1.6,-1.4 -2.4,-2.8 -2.4,-4.3 z"
               id="path1523-0"
               style="fill:#faa926" /><path
               class="d"
               d="m 270.4,308.8 v 27 q -1.6,-1.4 -2.8,-2.9 v -24.1 z"
               id="path1525-2"
               style="fill:#faa926" /><path
               class="d"
               d="m 279.3,316.7 v 24.6 q -1.5,-0.7 -2.9,-1.5 v -23.1 z"
               id="path1527-3"
               style="fill:#faa926" /><path
               class="d"
               d="m 289.9,321.6 v 23.9 q -1.4,-0.4 -2.8,-0.9 v -23 z"
               id="path1529-6"
               style="fill:#faa926" /><path
               class="d"
               d="m 301.4,324.8 v 23.9 q -1.5,-0.3 -2.8,-0.7 v -23.2 z"
               id="path1531-67"
               style="fill:#faa926" /><path
               class="d"
               d="m 311.8,327.9 v 23 q -1.4,-0.2 -2.8,-0.5 v -22.5 z"
               id="path1533-8"
               style="fill:#faa926" /><path
               class="d"
               d="m 324.1,330 v 22.8 q -1.4,-0.2 -2.8,-0.4 V 330 Z"
               id="path1535-97"
               style="fill:#faa926" /><path
               class="d"
               d="m 334.7,330 v 23.9 q -1.4,-0.1 -2.8,-0.3 V 330 Z"
               id="path1537-9"
               style="fill:#faa926" /><path
               class="d"
               d="m 349.4,330 v 24.8 q -1.4,-0.1 -2.8,-0.1 V 330 Z"
               id="path1539-3"
               style="fill:#faa926" /><path
               class="d"
               d="M 366.3,327.9 V 355 q -1.4,0 -2.9,0 v -27.1 z"
               id="path1541-26"
               style="fill:#faa926" /><path
               class="d"
               d="m 381.9,324.8 v 29.6 q -1.4,0.1 -2.8,0.1 v -29.7 z"
               id="path1543-0"
               style="fill:#faa926" /><path
               class="d"
               d="m 394.6,324.8 v 28.5 q -1.4,0.1 -2.8,0.3 v -28.8 z"
               id="path1545-5"
               style="fill:#faa926" /><path
               class="d"
               d="m 411.3,321.6 v 29.3 q -1.4,0.2 -2.9,0.5 v -29.8 z"
               id="path1547-3"
               style="fill:#faa926" /><path
               class="d"
               d="m 429.1,318.5 v 28.2 q -1.3,0.4 -2.8,0.8 v -29 z"
               id="path1549-05"
               style="fill:#faa926" /><path
               class="d"
               d="m 443.4,310.9 v 30.5 q -1.3,0.6 -2.8,1.3 v -31.8 z"
               id="path1551-1"
               style="fill:#faa926" /><path
               class="d"
               d="m 453.4,305.7 v 29.2 q -1.2,1.1 -2.8,2.3 v -31.5 z"
               id="path1553-4"
               style="fill:#faa926" /><path
               class="e"
               d="m 457.9,312.3 v 13.9 c 0,3 -1.6,5.9 -4.5,8.7 q -1.2,1.1 -2.8,2.3 -3,2.2 -7.2,4.2 -1.3,0.6 -2.8,1.3 c -3.4,1.4 -7.2,2.8 -11.5,4 q -1.3,0.4 -2.8,0.8 -6.9,1.9 -15,3.4 -1.4,0.2 -2.9,0.5 c -4.4,0.7 -9,1.4 -13.8,1.9 q -1.4,0.1 -2.8,0.3 -4.8,0.4 -9.9,0.8 -1.4,0.1 -2.8,0.1 -6.3,0.4 -12.8,0.5 -1.4,0 -2.9,0 h -2 q -6.1,0 -12,-0.2 -1.4,-0.1 -2.8,-0.1 -6.1,-0.3 -11.9,-0.8 -1.4,-0.1 -2.8,-0.3 -4,-0.4 -7.8,-0.8 -1.4,-0.2 -2.8,-0.4 -4.9,-0.7 -9.5,-1.5 -1.4,-0.2 -2.8,-0.5 -4,-0.8 -7.6,-1.7 -1.5,-0.3 -2.8,-0.7 -4.6,-1.1 -8.7,-2.5 -1.4,-0.4 -2.8,-0.9 -4.3,-1.6 -7.8,-3.3 -1.5,-0.7 -2.9,-1.5 -3.5,-1.9 -6,-4 -1.6,-1.4 -2.8,-2.9 c -1.7,-2.1 -2.6,-4.4 -2.6,-6.7 0,-3.4 0,-8.7 0,-13.9 0,2.3 0.9,4.5 2.6,6.7 q 1.2,1.4 2.8,2.8 2.5,2.1 6,4.1 1.4,0.7 2.9,1.4 3.5,1.8 7.8,3.3 1.4,0.5 2.8,1 4.1,1.3 8.7,2.5 1.3,0.3 2.8,0.7 3.6,0.9 7.6,1.6 1.4,0.3 2.8,0.5 4.6,0.9 9.5,1.5 1.4,0.2 2.8,0.4 c 2.5,0.3 5.1,0.6 7.8,0.9 q 1.4,0.1 2.8,0.2 5.8,0.5 11.9,0.8 1.4,0.1 2.8,0.1 5.9,0.2 12,0.3 h 2 q 1.5,-0.1 2.9,-0.1 6.5,-0.1 12.8,-0.4 1.4,-0.1 2.8,-0.2 5.1,-0.3 9.9,-0.8 c 0.9,-0.1 1.8,-0.2 2.8,-0.3 4.8,-0.5 9.4,-1.2 13.8,-1.9 q 1.5,-0.2 2.9,-0.5 8.1,-1.4 15,-3.3 1.5,-0.4 2.8,-0.9 c 4.3,-1.2 8.1,-2.5 11.5,-4 q 1.5,-0.6 2.8,-1.2 4.2,-2.1 7.2,-4.3 1.6,-1.1 2.8,-2.3 c 2.9,-2.7 4.5,-5.6 4.5,-8.6 z"
               id="path1555-4"
               style="mix-blend-mode:multiply;fill:#e5d4d4" /><path
               class="a"
               d="m 670.2,411.6 v 31.6 c 0,3 -1.6,5.9 -4.4,8.7 q -1.3,1.1 -2.9,2.3 -3,2.2 -7.2,4.2 -1.3,0.6 -2.8,1.3 c -3.4,1.4 -7.2,2.8 -11.5,4 q -1.3,0.4 -2.8,0.8 -6.9,1.9 -15,3.4 -1.4,0.2 -2.8,0.5 c -4.5,0.7 -9.1,1.4 -13.9,1.9 -0.9,0.1 -1.9,0.2 -2.8,0.3 q -4.8,0.4 -9.9,0.8 -1.4,0.1 -2.8,0.1 -6.3,0.4 -12.8,0.5 -1.4,0 -2.8,0 h -2.1 q -6.1,0 -12,-0.2 c -1,0 -1.9,-0.1 -2.8,-0.1 q -6.1,-0.3 -11.9,-0.8 -1.4,-0.1 -2.8,-0.3 -4,-0.4 -7.8,-0.8 -1.4,-0.2 -2.8,-0.4 -4.9,-0.7 -9.5,-1.5 -1.4,-0.2 -2.8,-0.5 -3.9,-0.8 -7.6,-1.7 -1.5,-0.3 -2.8,-0.7 -4.6,-1.1 -8.7,-2.5 -1.4,-0.4 -2.8,-0.9 -4.3,-1.6 -7.8,-3.3 -1.5,-0.7 -2.8,-1.5 -3.6,-1.9 -6.1,-4 -1.6,-1.4 -2.8,-2.9 c -1.7,-2.1 -2.6,-4.4 -2.6,-6.7 0,-9.3 0,-31.6 0,-31.6 z"
               id="path1557-40"
               style="fill:#fdc11f" /><path
               class="b"
               d="m 670.2,411.7 c 0,14 -43.2,25.4 -96.5,25.4 -53.2,0 -96.4,-11.4 -96.4,-25.4 0,-14.1 43.2,-25.5 96.4,-25.5 53.3,0 96.5,11.4 96.5,25.5 z"
               id="path1559-6"
               style="fill:#ffdd17" /><path
               class="c"
               d="m 652.9,408.3 c 0,9.6 -35.4,17.5 -79.2,17.5 -43.7,0 -79.1,-7.9 -79.1,-17.5 0,-9.7 35.4,-17.6 79.1,-17.6 43.8,0 79.2,7.9 79.2,17.6 z"
               id="path1561-4"
               style="fill:#fece1b" /><path
               class="d"
               d="m 494.6,408.3 c 0,-9.7 35.4,-17.6 79.1,-17.6 43.8,0 79.2,7.9 79.2,17.6 0,1.4 -0.8,2.9 -2.4,4.3 -8.7,-7.6 -39.8,-13.3 -76.8,-13.3 -37,0 -68,5.7 -76.7,13.3 -1.6,-1.4 -2.4,-2.9 -2.4,-4.3 z"
               id="path1563-99"
               style="fill:#faa926" /><path
               class="d"
               d="m 482.7,425.8 v 27 q -1.6,-1.4 -2.8,-2.9 v -24.1 z"
               id="path1565-2"
               style="fill:#faa926" /><path
               class="d"
               d="m 491.6,433.7 v 24.6 q -1.5,-0.7 -2.8,-1.5 v -23.1 z"
               id="path1567-9"
               style="fill:#faa926" /><path
               class="d"
               d="m 502.2,438.6 v 23.9 q -1.4,-0.4 -2.8,-0.9 v -23 z"
               id="path1569-2"
               style="fill:#faa926" /><path
               class="d"
               d="m 513.7,441.8 v 23.9 q -1.5,-0.3 -2.8,-0.7 v -23.2 z"
               id="path1571-57"
               style="fill:#faa926" /><path
               class="d"
               d="m 524.1,444.9 v 23 q -1.4,-0.2 -2.8,-0.5 v -22.5 z"
               id="path1573-0"
               style="fill:#faa926" /><path
               class="d"
               d="m 536.4,447 v 22.8 q -1.4,-0.2 -2.8,-0.4 V 447 Z"
               id="path1575-9"
               style="fill:#faa926" /><path
               class="d"
               d="m 547,447 v 23.9 q -1.4,-0.1 -2.8,-0.3 V 447 Z"
               id="path1577-8"
               style="fill:#faa926" /><path
               class="d"
               d="m 561.7,447 v 24.8 c -1,0 -1.9,-0.1 -2.8,-0.1 V 447 Z"
               id="path1579-5"
               style="fill:#faa926" /><path
               class="d"
               d="M 578.6,444.9 V 472 q -1.4,0 -2.8,0 v -27.1 z"
               id="path1581-7"
               style="fill:#faa926" /><path
               class="d"
               d="m 594.2,441.8 v 29.6 q -1.4,0.1 -2.8,0.1 v -29.7 z"
               id="path1583-3"
               style="fill:#faa926" /><path
               class="d"
               d="m 606.9,441.8 v 28.5 c -0.9,0.1 -1.9,0.2 -2.8,0.3 v -28.8 z"
               id="path1585-5"
               style="fill:#faa926" /><path
               class="d"
               d="m 623.6,438.6 v 29.3 q -1.4,0.2 -2.8,0.5 v -29.8 z"
               id="path1587-7"
               style="fill:#faa926" /><path
               class="d"
               d="m 641.4,435.5 v 28.2 q -1.3,0.4 -2.8,0.8 v -29 z"
               id="path1589-2"
               style="fill:#faa926" /><path
               class="d"
               d="m 655.7,427.9 v 30.5 q -1.3,0.6 -2.8,1.3 v -31.8 z"
               id="path1591-1"
               style="fill:#faa926" /><path
               class="d"
               d="m 665.8,422.7 v 29.2 q -1.3,1.1 -2.9,2.3 v -31.5 z"
               id="path1593-38"
               style="fill:#faa926" /><path
               class="e"
               d="m 670.2,429.3 v 13.9 c 0,3 -1.6,5.9 -4.4,8.7 q -1.3,1.1 -2.9,2.3 -3,2.2 -7.2,4.2 -1.3,0.6 -2.8,1.3 c -3.4,1.4 -7.2,2.8 -11.5,4 q -1.3,0.4 -2.8,0.8 -6.9,1.9 -15,3.4 -1.4,0.2 -2.8,0.5 c -4.5,0.7 -9.1,1.4 -13.9,1.9 -0.9,0.1 -1.9,0.2 -2.8,0.3 q -4.8,0.4 -9.9,0.8 -1.4,0.1 -2.8,0.1 -6.3,0.4 -12.8,0.5 -1.4,0 -2.8,0 h -2.1 q -6.1,0 -12,-0.2 c -1,0 -1.9,-0.1 -2.8,-0.1 q -6.1,-0.3 -11.9,-0.8 -1.4,-0.1 -2.8,-0.3 -4,-0.4 -7.8,-0.8 -1.4,-0.2 -2.8,-0.4 -4.9,-0.7 -9.5,-1.5 -1.4,-0.2 -2.8,-0.5 -3.9,-0.8 -7.6,-1.7 -1.5,-0.3 -2.8,-0.7 -4.6,-1.1 -8.7,-2.5 -1.4,-0.4 -2.8,-0.9 -4.3,-1.6 -7.8,-3.3 -1.5,-0.7 -2.8,-1.5 -3.6,-1.9 -6.1,-4 -1.6,-1.4 -2.8,-2.9 c -1.7,-2.1 -2.6,-4.4 -2.6,-6.7 0,-3.5 0,-8.7 0,-13.9 0,2.3 0.9,4.5 2.6,6.7 q 1.2,1.4 2.8,2.8 2.5,2.1 6.1,4.1 1.3,0.7 2.8,1.4 3.5,1.8 7.8,3.3 1.4,0.5 2.8,1 4.1,1.3 8.7,2.5 1.3,0.3 2.8,0.7 3.7,0.9 7.6,1.6 1.4,0.3 2.8,0.5 4.6,0.9 9.5,1.5 1.4,0.2 2.8,0.4 3.8,0.5 7.8,0.9 1.4,0.1 2.8,0.2 5.8,0.5 11.9,0.8 1.4,0.1 2.8,0.1 5.9,0.2 12,0.3 h 2.1 q 1.4,-0.1 2.8,-0.1 6.5,-0.1 12.8,-0.4 1.4,-0.1 2.8,-0.2 5.1,-0.3 9.9,-0.8 1.4,-0.1 2.8,-0.3 c 4.8,-0.5 9.4,-1.2 13.9,-1.9 q 1.4,-0.2 2.8,-0.5 8.1,-1.4 15,-3.3 1.5,-0.4 2.8,-0.9 c 4.3,-1.2 8.1,-2.5 11.5,-4 q 1.5,-0.6 2.8,-1.3 4.2,-2 7.2,-4.2 1.6,-1.1 2.9,-2.3 c 2.8,-2.7 4.4,-5.6 4.4,-8.6 z"
               id="path1595-1"
               style="mix-blend-mode:multiply;fill:#e5d4d4" /><path
               class="a"
               d="m 661.9,373.3 v 31.6 c 0,3 -1.6,5.9 -4.4,8.6 q -1.3,1.2 -2.9,2.3 -3,2.2 -7.2,4.3 -1.3,0.6 -2.8,1.2 c -3.4,1.5 -7.2,2.8 -11.5,4 q -1.3,0.5 -2.8,0.9 -6.9,1.9 -15,3.3 -1.4,0.3 -2.9,0.5 c -4.4,0.7 -9,1.4 -13.8,1.9 q -1.4,0.2 -2.8,0.3 -4.8,0.5 -9.9,0.8 -1.4,0.1 -2.8,0.2 -6.3,0.3 -12.8,0.4 -1.4,0 -2.9,0.1 h -2 q -6.1,-0.1 -12,-0.3 c -1,0 -1.9,-0.1 -2.8,-0.1 q -6.1,-0.3 -11.9,-0.8 -1.4,-0.1 -2.8,-0.2 c -2.7,-0.3 -5.3,-0.6 -7.8,-0.9 q -1.4,-0.2 -2.8,-0.4 -4.9,-0.6 -9.5,-1.5 -1.4,-0.2 -2.8,-0.5 -4,-0.7 -7.6,-1.6 -1.5,-0.4 -2.8,-0.7 -4.6,-1.2 -8.7,-2.5 -1.4,-0.5 -2.8,-1 -4.3,-1.5 -7.8,-3.3 -1.5,-0.7 -2.8,-1.4 -3.6,-2 -6.1,-4.1 -1.6,-1.4 -2.8,-2.8 c -1.7,-2.2 -2.6,-4.4 -2.6,-6.7 0,-9.4 0,-31.6 0,-31.6 z"
               id="path1597-7"
               style="fill:#fdc11f" /><path
               class="b"
               d="m 661.9,373.3 c 0,14.1 -43.2,25.5 -96.5,25.5 -53.2,0 -96.4,-11.4 -96.4,-25.5 0,-14.1 43.2,-25.5 96.4,-25.5 53.3,0 96.5,11.4 96.5,25.5 z"
               id="path1599-4"
               style="fill:#ffdd17" /><path
               class="c"
               d="m 644.6,369.9 c 0,9.7 -35.4,17.5 -79.2,17.5 -43.7,0 -79.1,-7.8 -79.1,-17.5 0,-9.7 35.4,-17.5 79.1,-17.5 43.8,0 79.2,7.8 79.2,17.5 z"
               id="path1601-1"
               style="fill:#fece1b" /><path
               class="d"
               d="m 486.3,369.9 c 0,-9.7 35.4,-17.5 79.1,-17.5 43.8,0 79.2,7.8 79.2,17.5 0,1.5 -0.8,2.9 -2.4,4.3 -8.7,-7.6 -39.8,-13.2 -76.8,-13.2 -37,0 -68,5.6 -76.7,13.2 -1.6,-1.4 -2.4,-2.8 -2.4,-4.3 z"
               id="path1603-9"
               style="fill:#faa926" /><path
               class="d"
               d="m 474.4,387.4 v 27 q -1.6,-1.4 -2.8,-2.8 v -24.2 z"
               id="path1605-3"
               style="fill:#faa926" /><path
               class="d"
               d="m 483.3,395.4 v 24.5 q -1.5,-0.7 -2.8,-1.4 v -23.1 z"
               id="path1607-13"
               style="fill:#faa926" /><path
               class="d"
               d="m 493.9,400.2 v 24 q -1.4,-0.5 -2.8,-1 v -23 z"
               id="path1609-54"
               style="fill:#faa926" /><path
               class="d"
               d="m 505.4,403.5 v 23.9 q -1.5,-0.4 -2.8,-0.7 v -23.2 z"
               id="path1611-9"
               style="fill:#faa926" /><path
               class="d"
               d="m 515.8,406.6 v 22.9 q -1.4,-0.2 -2.8,-0.5 v -22.4 z"
               id="path1613-1"
               style="fill:#faa926" /><path
               class="d"
               d="m 528.1,408.7 v 22.7 q -1.4,-0.2 -2.8,-0.4 v -22.3 z"
               id="path1615-74"
               style="fill:#faa926" /><path
               class="d"
               d="m 538.7,408.7 v 23.8 q -1.4,-0.1 -2.8,-0.2 v -23.6 z"
               id="path1617-4"
               style="fill:#faa926" /><path
               class="d"
               d="m 553.4,408.7 v 24.7 c -1,0 -1.9,-0.1 -2.8,-0.1 v -24.6 z"
               id="path1619-9"
               style="fill:#faa926" /><path
               class="d"
               d="m 570.3,406.6 v 27 q -1.4,0 -2.9,0.1 v -27.1 z"
               id="path1621-3"
               style="fill:#faa926" /><path
               class="d"
               d="M 585.9,403.5 V 433 q -1.4,0.1 -2.8,0.2 v -29.7 z"
               id="path1623-8"
               style="fill:#faa926" /><path
               class="d"
               d="m 598.6,403.5 v 28.4 q -1.4,0.2 -2.8,0.3 v -28.7 z"
               id="path1625-14"
               style="fill:#faa926" /><path
               class="d"
               d="m 615.3,400.2 v 29.3 q -1.4,0.3 -2.9,0.5 v -29.8 z"
               id="path1627-7"
               style="fill:#faa926" /><path
               class="d"
               d="m 633.1,397.1 v 28.2 q -1.3,0.5 -2.8,0.9 v -29.1 z"
               id="path1629-4"
               style="fill:#faa926" /><path
               class="d"
               d="m 647.4,389.5 v 30.6 q -1.3,0.6 -2.8,1.2 v -31.8 z"
               id="path1631-07"
               style="fill:#faa926" /><path
               class="d"
               d="m 657.5,384.3 v 29.2 q -1.3,1.2 -2.9,2.3 v -31.5 z"
               id="path1633-6"
               style="fill:#faa926" /><path
               class="e"
               d="m 661.9,390.9 v 14 c 0,3 -1.6,5.9 -4.4,8.6 q -1.3,1.2 -2.9,2.3 -3,2.2 -7.2,4.3 -1.3,0.6 -2.8,1.2 c -3.4,1.5 -7.2,2.8 -11.5,4 q -1.3,0.5 -2.8,0.9 -6.9,1.9 -15,3.3 -1.4,0.3 -2.9,0.5 c -4.4,0.7 -9,1.4 -13.8,1.9 q -1.4,0.2 -2.8,0.3 -4.8,0.5 -9.9,0.8 -1.4,0.1 -2.8,0.2 -6.3,0.3 -12.8,0.4 -1.4,0 -2.9,0.1 h -2 q -6.1,-0.1 -12,-0.3 c -1,0 -1.9,-0.1 -2.8,-0.1 q -6.1,-0.3 -11.9,-0.8 -1.4,-0.1 -2.8,-0.2 c -2.7,-0.3 -5.3,-0.6 -7.8,-0.9 q -1.4,-0.2 -2.8,-0.4 -4.9,-0.6 -9.5,-1.5 -1.4,-0.2 -2.8,-0.5 -4,-0.7 -7.6,-1.6 -1.5,-0.4 -2.8,-0.7 -4.6,-1.2 -8.7,-2.5 -1.4,-0.5 -2.8,-1 -4.3,-1.5 -7.8,-3.3 -1.5,-0.7 -2.8,-1.4 -3.6,-2 -6.1,-4.1 -1.6,-1.4 -2.8,-2.8 c -1.7,-2.2 -2.6,-4.4 -2.6,-6.7 0,-3.5 0,-8.8 0,-14 0,2.3 0.9,4.5 2.6,6.7 q 1.2,1.4 2.8,2.9 2.5,2.1 6.1,4 1.3,0.8 2.8,1.5 3.5,1.7 7.8,3.2 1.4,0.5 2.8,1 4.1,1.4 8.7,2.5 1.3,0.4 2.8,0.7 3.6,0.9 7.6,1.7 1.4,0.2 2.8,0.5 4.6,0.8 9.5,1.5 1.4,0.2 2.8,0.4 3.8,0.4 7.8,0.8 1.4,0.1 2.8,0.3 5.8,0.5 11.9,0.8 1.4,0 2.8,0.1 5.9,0.2 12,0.2 h 2 q 1.5,0 2.9,0 6.5,-0.2 12.8,-0.5 1.4,-0.1 2.8,-0.2 5.1,-0.3 9.9,-0.8 1.4,-0.1 2.8,-0.2 c 4.8,-0.6 9.4,-1.2 13.8,-2 q 1.5,-0.2 2.9,-0.4 8.1,-1.5 15,-3.4 1.5,-0.4 2.8,-0.8 c 4.3,-1.2 8.1,-2.6 11.5,-4 q 1.5,-0.7 2.8,-1.3 4.2,-2 7.2,-4.2 1.6,-1.2 2.9,-2.4 c 2.8,-2.7 4.4,-5.6 4.4,-8.6 z"
               id="path1635-5"
               style="mix-blend-mode:multiply;fill:#e5d4d4" /><path
               class="a"
               d="m 670.2,333 v 31.6 c 0,3 -1.6,5.9 -4.4,8.6 q -1.3,1.2 -2.9,2.4 -3,2.1 -7.2,4.2 -1.3,0.6 -2.8,1.2 c -3.4,1.5 -7.2,2.9 -11.5,4.1 q -1.3,0.4 -2.8,0.8 -6.9,1.9 -15,3.3 -1.4,0.3 -2.8,0.5 c -4.5,0.8 -9.1,1.4 -13.9,1.9 q -1.4,0.2 -2.8,0.3 -4.8,0.5 -9.9,0.8 -1.4,0.1 -2.8,0.2 -6.3,0.3 -12.8,0.4 -1.4,0.1 -2.8,0.1 h -2.1 q -6.1,0 -12,-0.2 -1.4,-0.1 -2.8,-0.2 -6.1,-0.3 -11.9,-0.8 -1.4,-0.1 -2.8,-0.2 -4,-0.4 -7.8,-0.9 -1.4,-0.2 -2.8,-0.3 -4.9,-0.7 -9.5,-1.5 -1.4,-0.3 -2.8,-0.6 -3.9,-0.7 -7.6,-1.6 -1.5,-0.3 -2.8,-0.7 -4.6,-1.2 -8.7,-2.5 -1.4,-0.5 -2.8,-1 -4.3,-1.5 -7.8,-3.2 -1.5,-0.7 -2.8,-1.5 -3.6,-1.9 -6.1,-4.1 -1.6,-1.4 -2.8,-2.8 c -1.7,-2.2 -2.6,-4.4 -2.6,-6.7 0,-9.4 0,-31.6 0,-31.6 z"
               id="path1637-3"
               style="fill:#fdc11f" /><path
               class="b"
               d="m 670.2,333 c 0,14.1 -43.2,25.5 -96.5,25.5 -53.2,0 -96.4,-11.4 -96.4,-25.5 0,-14.1 43.2,-25.5 96.4,-25.5 53.3,0 96.5,11.4 96.5,25.5 z"
               id="path1639-1"
               style="fill:#ffdd17" /><path
               class="c"
               d="m 652.9,329.6 c 0,9.7 -35.4,17.6 -79.2,17.6 -43.7,0 -79.1,-7.9 -79.1,-17.6 0,-9.7 35.4,-17.5 79.1,-17.5 43.8,0 79.2,7.8 79.2,17.5 z"
               id="path1641-82"
               style="fill:#fece1b" /><path
               class="d"
               d="m 494.6,329.6 c 0,-9.7 35.4,-17.5 79.1,-17.5 43.8,0 79.2,7.8 79.2,17.5 0,1.5 -0.8,3 -2.4,4.3 -8.7,-7.6 -39.8,-13.2 -76.8,-13.2 -37,0 -68,5.6 -76.7,13.2 -1.6,-1.3 -2.4,-2.8 -2.4,-4.3 z"
               id="path1643-9"
               style="fill:#faa926" /><path
               class="d"
               d="m 482.7,347.2 v 26.9 q -1.6,-1.4 -2.8,-2.8 v -24.1 z"
               id="path1645-2"
               style="fill:#faa926" /><path
               class="d"
               d="m 491.6,355.1 v 24.6 q -1.5,-0.7 -2.8,-1.5 v -23.1 z"
               id="path1647-1"
               style="fill:#faa926" /><path
               class="d"
               d="m 502.2,359.9 v 24 q -1.4,-0.5 -2.8,-1 v -23 z"
               id="path1649-4"
               style="fill:#faa926" /><path
               class="d"
               d="m 513.7,363.2 v 23.9 q -1.5,-0.3 -2.8,-0.7 v -23.2 z"
               id="path1651-5"
               style="fill:#faa926" /><path
               class="d"
               d="m 524.1,366.3 v 23 q -1.4,-0.3 -2.8,-0.6 v -22.4 z"
               id="path1653-9"
               style="fill:#faa926" /><path
               class="d"
               d="m 536.4,368.4 v 22.7 q -1.4,-0.2 -2.8,-0.3 v -22.4 z"
               id="path1655-5"
               style="fill:#faa926" /><path
               class="d"
               d="m 547,368.4 v 23.8 q -1.4,-0.1 -2.8,-0.2 v -23.6 z"
               id="path1657-0"
               style="fill:#faa926" /><path
               class="d"
               d="m 561.7,368.4 v 24.8 q -1.4,-0.1 -2.8,-0.2 v -24.6 z"
               id="path1659-8"
               style="fill:#faa926" /><path
               class="d"
               d="m 578.6,366.3 v 27 q -1.4,0.1 -2.8,0.1 v -27.1 z"
               id="path1661-8"
               style="fill:#faa926" /><path
               class="d"
               d="m 594.2,363.2 v 29.5 q -1.4,0.1 -2.8,0.2 v -29.7 z"
               id="path1663-7"
               style="fill:#faa926" /><path
               class="d"
               d="m 606.9,363.2 v 28.4 q -1.4,0.2 -2.8,0.3 v -28.7 z"
               id="path1665-1"
               style="fill:#faa926" /><path
               class="d"
               d="m 623.6,359.9 v 29.3 q -1.4,0.3 -2.8,0.5 v -29.8 z"
               id="path1667-84"
               style="fill:#faa926" /><path
               class="d"
               d="m 641.4,356.8 v 28.3 q -1.3,0.4 -2.8,0.8 v -29.1 z"
               id="path1669-6"
               style="fill:#faa926" /><path
               class="d"
               d="m 655.7,349.2 v 30.6 q -1.3,0.6 -2.8,1.2 v -31.8 z"
               id="path1671-32"
               style="fill:#faa926" /><path
               class="d"
               d="m 665.8,344 v 29.2 q -1.3,1.2 -2.9,2.4 V 344 Z"
               id="path1673-0"
               style="fill:#faa926" /><path
               class="e"
               d="m 670.2,350.6 v 14 c 0,3 -1.6,5.9 -4.4,8.6 q -1.3,1.2 -2.9,2.4 -3,2.1 -7.2,4.2 -1.3,0.6 -2.8,1.2 c -3.4,1.5 -7.2,2.9 -11.5,4.1 q -1.3,0.4 -2.8,0.8 -6.9,1.9 -15,3.3 -1.4,0.3 -2.8,0.5 c -4.5,0.8 -9.1,1.4 -13.9,1.9 q -1.4,0.2 -2.8,0.3 -4.8,0.5 -9.9,0.8 -1.4,0.1 -2.8,0.2 -6.3,0.3 -12.8,0.4 -1.4,0.1 -2.8,0.1 h -2.1 q -6.1,0 -12,-0.2 -1.4,-0.1 -2.8,-0.2 -6.1,-0.3 -11.9,-0.8 -1.4,-0.1 -2.8,-0.2 -4,-0.4 -7.8,-0.9 -1.4,-0.2 -2.8,-0.3 -4.9,-0.7 -9.5,-1.5 -1.4,-0.3 -2.8,-0.6 -3.9,-0.7 -7.6,-1.6 -1.5,-0.3 -2.8,-0.7 -4.6,-1.2 -8.7,-2.5 -1.4,-0.5 -2.8,-1 -4.3,-1.5 -7.8,-3.2 -1.5,-0.7 -2.8,-1.5 -3.6,-1.9 -6.1,-4.1 -1.6,-1.4 -2.8,-2.8 c -1.7,-2.2 -2.6,-4.4 -2.6,-6.7 0,-3.5 0,-8.7 0,-14 0,2.3 0.9,4.6 2.6,6.7 q 1.2,1.5 2.8,2.9 2.5,2.1 6.1,4 1.3,0.8 2.8,1.5 3.5,1.7 7.8,3.3 1.4,0.5 2.8,0.9 4.1,1.4 8.7,2.5 1.3,0.4 2.8,0.7 3.7,0.9 7.6,1.7 1.4,0.3 2.8,0.5 4.6,0.8 9.5,1.5 1.4,0.2 2.8,0.4 c 2.5,0.3 5.1,0.6 7.8,0.8 q 1.4,0.2 2.8,0.3 5.8,0.5 11.9,0.8 1.4,0 2.8,0.1 5.9,0.2 12,0.2 h 2.1 q 1.4,0 2.8,0 6.5,-0.1 12.8,-0.5 1.4,0 2.8,-0.1 5.1,-0.4 9.9,-0.8 1.4,-0.2 2.8,-0.3 c 4.8,-0.5 9.4,-1.2 13.9,-1.9 q 1.4,-0.3 2.8,-0.5 8.1,-1.5 15,-3.4 1.5,-0.4 2.8,-0.8 c 4.3,-1.2 8.1,-2.6 11.5,-4 q 1.5,-0.7 2.8,-1.3 4.2,-2 7.2,-4.2 1.6,-1.2 2.9,-2.3 c 2.8,-2.8 4.4,-5.7 4.4,-8.7 z"
               id="path1675-2"
               style="mix-blend-mode:multiply;fill:#e5d4d4" /><path
               class="a"
               d="m 680.6,294.6 v 31.6 c 0,3 -1.6,5.9 -4.5,8.7 q -1.2,1.1 -2.8,2.3 -3,2.2 -7.2,4.2 -1.4,0.6 -2.8,1.3 c -3.4,1.4 -7.2,2.8 -11.5,4 q -1.3,0.4 -2.8,0.8 -6.9,1.9 -15,3.4 -1.4,0.2 -2.9,0.5 c -4.4,0.7 -9,1.4 -13.8,1.9 q -1.4,0.1 -2.8,0.3 -4.8,0.4 -9.9,0.8 -1.4,0.1 -2.8,0.1 -6.3,0.4 -12.8,0.5 -1.4,0 -2.9,0 h -2 q -6.1,0 -12,-0.2 -1.4,-0.1 -2.8,-0.1 -6.1,-0.3 -11.9,-0.8 -1.4,-0.1 -2.8,-0.3 -4,-0.4 -7.8,-0.8 -1.5,-0.2 -2.9,-0.4 -4.8,-0.7 -9.4,-1.5 -1.4,-0.2 -2.8,-0.5 -4,-0.8 -7.6,-1.7 -1.5,-0.3 -2.8,-0.7 -4.6,-1.1 -8.7,-2.5 -1.4,-0.4 -2.8,-0.9 -4.3,-1.6 -7.8,-3.3 -1.5,-0.7 -2.9,-1.5 -3.5,-1.9 -6,-4 -1.6,-1.4 -2.8,-2.9 c -1.7,-2.1 -2.6,-4.4 -2.6,-6.7 0,-9.3 0,-31.6 0,-31.6 z"
               id="path1677-1"
               style="fill:#fdc11f" /><path
               class="b"
               d="m 680.6,294.7 c 0,14 -43.2,25.5 -96.5,25.5 -53.2,0 -96.4,-11.5 -96.4,-25.5 0,-14.1 43.2,-25.5 96.4,-25.5 53.3,0 96.5,11.4 96.5,25.5 z"
               id="path1679-0"
               style="fill:#ffdd17" /><path
               class="c"
               d="m 663.3,291.3 c 0,9.6 -35.5,17.5 -79.2,17.5 -43.7,0 -79.1,-7.9 -79.1,-17.5 0,-9.7 35.4,-17.6 79.1,-17.6 43.7,0 79.2,7.9 79.2,17.6 z"
               id="path1681-9"
               style="fill:#fece1b" /><path
               class="d"
               d="m 505,291.3 c 0,-9.7 35.4,-17.6 79.1,-17.6 43.7,0 79.2,7.9 79.2,17.6 0,1.5 -0.9,2.9 -2.4,4.3 -8.7,-7.6 -39.8,-13.3 -76.8,-13.3 -37,0 -68,5.7 -76.7,13.3 -1.6,-1.4 -2.4,-2.8 -2.4,-4.3 z"
               id="path1683-0"
               style="fill:#faa926" /><path
               class="d"
               d="m 493.1,308.8 v 27 q -1.6,-1.4 -2.8,-2.9 v -24.1 z"
               id="path1685-8"
               style="fill:#faa926" /><path
               class="d"
               d="m 502,316.7 v 24.6 q -1.5,-0.7 -2.9,-1.5 v -23.1 z"
               id="path1687-0"
               style="fill:#faa926" /><path
               class="d"
               d="m 512.6,321.6 v 23.9 q -1.4,-0.4 -2.8,-0.9 v -23 z"
               id="path1689-4"
               style="fill:#faa926" /><path
               class="d"
               d="m 524.1,324.8 v 23.9 q -1.5,-0.3 -2.8,-0.7 v -23.2 z"
               id="path1691-46"
               style="fill:#faa926" /><path
               class="d"
               d="m 534.5,327.9 v 23 q -1.4,-0.2 -2.8,-0.5 v -22.5 z"
               id="path1693-9"
               style="fill:#faa926" /><path
               class="d"
               d="m 546.8,330 v 22.8 q -1.5,-0.2 -2.9,-0.4 V 330 Z"
               id="path1695-3"
               style="fill:#faa926" /><path
               class="d"
               d="m 557.4,330 v 23.9 q -1.4,-0.1 -2.8,-0.3 V 330 Z"
               id="path1697-7"
               style="fill:#faa926" /><path
               class="d"
               d="m 572.1,330 v 24.8 q -1.4,-0.1 -2.8,-0.1 V 330 Z"
               id="path1699-8"
               style="fill:#faa926" /><path
               class="d"
               d="M 589,327.9 V 355 q -1.4,0 -2.9,0 v -27.1 z"
               id="path1701-2"
               style="fill:#faa926" /><path
               class="d"
               d="m 604.6,324.8 v 29.6 q -1.4,0.1 -2.8,0.1 v -29.7 z"
               id="path1703-0"
               style="fill:#faa926" /><path
               class="d"
               d="m 617.3,324.8 v 28.5 q -1.4,0.1 -2.8,0.3 v -28.8 z"
               id="path1705-1"
               style="fill:#faa926" /><path
               class="d"
               d="m 634,321.6 v 29.3 q -1.4,0.2 -2.9,0.5 v -29.8 z"
               id="path1707-9"
               style="fill:#faa926" /><path
               class="d"
               d="m 651.8,318.5 v 28.2 q -1.3,0.4 -2.8,0.8 v -29 z"
               id="path1709-8"
               style="fill:#faa926" /><path
               class="d"
               d="m 666.1,310.9 v 30.5 q -1.4,0.6 -2.8,1.3 v -31.8 z"
               id="path1711-1"
               style="fill:#faa926" /><path
               class="d"
               d="m 676.1,305.7 v 29.2 q -1.2,1.1 -2.8,2.3 v -31.5 z"
               id="path1713-28"
               style="fill:#faa926" /><path
               class="e"
               d="m 680.6,312.3 v 13.9 c 0,3 -1.6,5.9 -4.5,8.7 q -1.2,1.1 -2.8,2.3 -3,2.2 -7.2,4.2 -1.4,0.6 -2.8,1.3 c -3.4,1.4 -7.2,2.8 -11.5,4 q -1.3,0.4 -2.8,0.8 -6.9,1.9 -15,3.4 -1.4,0.2 -2.9,0.5 c -4.4,0.7 -9,1.4 -13.8,1.9 q -1.4,0.1 -2.8,0.3 -4.8,0.4 -9.9,0.8 -1.4,0.1 -2.8,0.1 -6.3,0.4 -12.8,0.5 -1.4,0 -2.9,0 h -2 q -6.1,0 -12,-0.2 -1.4,-0.1 -2.8,-0.1 -6.1,-0.3 -11.9,-0.8 -1.4,-0.1 -2.8,-0.3 -4,-0.4 -7.8,-0.8 -1.5,-0.2 -2.9,-0.4 -4.8,-0.7 -9.4,-1.5 -1.4,-0.2 -2.8,-0.5 -4,-0.8 -7.6,-1.7 -1.5,-0.3 -2.8,-0.7 -4.6,-1.1 -8.7,-2.5 -1.4,-0.4 -2.8,-0.9 -4.3,-1.6 -7.8,-3.3 -1.5,-0.7 -2.9,-1.5 -3.5,-1.9 -6,-4 -1.6,-1.4 -2.8,-2.9 c -1.7,-2.1 -2.6,-4.4 -2.6,-6.7 0,-3.4 0,-8.7 0,-13.9 0,2.3 0.9,4.5 2.6,6.7 q 1.2,1.4 2.8,2.8 2.5,2.1 6,4.1 1.4,0.7 2.9,1.4 3.5,1.8 7.8,3.3 1.4,0.5 2.8,1 4.1,1.3 8.7,2.5 1.3,0.3 2.8,0.7 3.6,0.9 7.6,1.6 1.4,0.3 2.8,0.5 4.6,0.9 9.4,1.5 1.4,0.2 2.9,0.4 c 2.5,0.3 5.1,0.6 7.8,0.9 q 1.4,0.1 2.8,0.2 5.8,0.5 11.9,0.8 1.4,0.1 2.8,0.1 5.9,0.2 12,0.3 h 2 q 1.5,-0.1 2.9,-0.1 6.5,-0.1 12.8,-0.4 1.4,-0.1 2.8,-0.2 5.1,-0.3 9.9,-0.8 1.4,-0.1 2.8,-0.3 c 4.8,-0.5 9.4,-1.2 13.8,-1.9 q 1.5,-0.2 2.9,-0.5 8.1,-1.4 15,-3.3 1.5,-0.4 2.8,-0.9 c 4.3,-1.2 8.1,-2.5 11.5,-4 q 1.4,-0.6 2.8,-1.2 4.2,-2.1 7.2,-4.3 1.6,-1.1 2.8,-2.3 c 2.9,-2.7 4.5,-5.6 4.5,-8.6 z"
               id="path1715-82"
               style="mix-blend-mode:multiply;fill:#e5d4d4" /><path
               class="a"
               d="m 676.3,249 v 31.6 c 0,3 -1.5,5.9 -4.4,8.6 q -1.2,1.2 -2.8,2.3 -3,2.2 -7.2,4.3 -1.4,0.6 -2.8,1.2 c -3.4,1.5 -7.3,2.8 -11.5,4.1 q -1.4,0.4 -2.8,0.8 -7,1.9 -15.1,3.3 -1.4,0.3 -2.8,0.5 c -4.4,0.7 -9,1.4 -13.9,1.9 q -1.4,0.2 -2.7,0.3 -4.9,0.5 -9.9,0.8 -1.4,0.1 -2.8,0.2 -6.3,0.3 -12.9,0.4 -1.4,0.1 -2.8,0.1 h -2 q -6.1,0 -12,-0.3 c -1,0 -1.9,0 -2.9,-0.1 q -6,-0.3 -11.8,-0.8 -1.4,-0.1 -2.8,-0.2 -4,-0.4 -7.9,-0.9 -1.4,-0.2 -2.8,-0.4 -4.9,-0.6 -9.4,-1.4 -1.4,-0.3 -2.8,-0.6 -4,-0.7 -7.7,-1.6 -1.4,-0.3 -2.8,-0.7 -4.5,-1.2 -8.6,-2.5 -1.5,-0.5 -2.8,-1 -4.3,-1.5 -7.9,-3.2 -1.4,-0.8 -2.8,-1.5 -3.5,-2 -6,-4.1 -1.7,-1.4 -2.8,-2.8 c -1.7,-2.2 -2.6,-4.4 -2.6,-6.7 0,-9.4 0,-31.6 0,-31.6 z"
               id="path1717-6"
               style="fill:#fdc11f" /><path
               class="b"
               d="m 676.3,249 c 0,14.1 -43.1,25.5 -96.4,25.5 -53.3,0 -96.4,-11.4 -96.4,-25.5 0,-14.1 43.1,-25.5 96.4,-25.5 53.3,0 96.4,11.4 96.4,25.5 z"
               id="path1719-6"
               style="fill:#ffdd17" /><path
               class="c"
               d="m 659.1,245.6 c 0,9.7 -35.5,17.6 -79.2,17.6 -43.7,0 -79.1,-7.9 -79.1,-17.6 0,-9.7 35.4,-17.5 79.1,-17.5 43.7,0 79.2,7.8 79.2,17.5 z"
               id="path1721-7"
               style="fill:#fece1b" /><path
               class="d"
               d="m 500.8,245.6 c 0,-9.7 35.4,-17.5 79.1,-17.5 43.7,0 79.2,7.8 79.2,17.5 0,1.5 -0.9,2.9 -2.5,4.3 -8.6,-7.6 -39.7,-13.2 -76.7,-13.2 -37,0 -68.1,5.6 -76.7,13.2 -1.6,-1.4 -2.4,-2.8 -2.4,-4.3 z"
               id="path1723-8"
               style="fill:#faa926" /><path
               class="d"
               d="m 488.9,263.2 v 26.9 q -1.7,-1.4 -2.8,-2.8 v -24.1 z"
               id="path1725-5"
               style="fill:#faa926" /><path
               class="d"
               d="m 497.7,271.1 v 24.6 q -1.4,-0.8 -2.8,-1.5 v -23.1 z"
               id="path1727-04"
               style="fill:#faa926" /><path
               class="d"
               d="m 508.4,275.9 v 24 q -1.5,-0.5 -2.8,-1 v -23 z"
               id="path1729-77"
               style="fill:#faa926" /><path
               class="d"
               d="m 519.8,279.2 v 23.9 q -1.4,-0.3 -2.8,-0.7 v -23.2 z"
               id="path1731-4"
               style="fill:#faa926" /><path
               class="d"
               d="m 530.3,282.3 v 23 q -1.4,-0.3 -2.8,-0.6 v -22.4 z"
               id="path1733-6"
               style="fill:#faa926" /><path
               class="d"
               d="m 542.5,284.4 v 22.7 q -1.4,-0.2 -2.8,-0.4 v -22.3 z"
               id="path1735-4"
               style="fill:#faa926" /><path
               class="d"
               d="m 553.2,284.4 v 23.8 q -1.4,-0.1 -2.8,-0.2 v -23.6 z"
               id="path1737-8"
               style="fill:#faa926" /><path
               class="d"
               d="m 567.9,284.4 v 24.7 c -1,0 -1.9,0 -2.9,-0.1 v -24.6 z"
               id="path1739-2"
               style="fill:#faa926" /><path
               class="d"
               d="m 584.7,282.3 v 27 q -1.4,0.1 -2.8,0.1 v -27.1 z"
               id="path1741-7"
               style="fill:#faa926" /><path
               class="d"
               d="m 600.4,279.2 v 29.5 q -1.4,0.1 -2.8,0.2 v -29.7 z"
               id="path1743-5"
               style="fill:#faa926" /><path
               class="d"
               d="m 613,279.2 v 28.4 q -1.4,0.2 -2.7,0.3 v -28.7 z"
               id="path1745-3"
               style="fill:#faa926" /><path
               class="d"
               d="m 629.7,275.9 v 29.3 q -1.4,0.3 -2.8,0.5 v -29.8 z"
               id="path1747-3"
               style="fill:#faa926" /><path
               class="d"
               d="m 647.6,272.8 v 28.3 q -1.4,0.4 -2.8,0.8 v -29.1 z"
               id="path1749-6"
               style="fill:#faa926" /><path
               class="d"
               d="m 661.9,265.2 v 30.6 q -1.4,0.6 -2.8,1.2 v -31.8 z"
               id="path1751-09"
               style="fill:#faa926" /><path
               class="d"
               d="m 671.9,260 v 29.2 q -1.2,1.2 -2.8,2.3 V 260 Z"
               id="path1753-9"
               style="fill:#faa926" /><path
               class="e"
               d="m 676.3,266.6 v 14 c 0,3 -1.5,5.9 -4.4,8.6 q -1.2,1.2 -2.8,2.3 -3,2.2 -7.2,4.3 -1.4,0.6 -2.8,1.2 c -3.4,1.5 -7.3,2.8 -11.5,4.1 q -1.4,0.4 -2.8,0.8 -7,1.9 -15.1,3.3 -1.4,0.3 -2.8,0.5 c -4.4,0.7 -9,1.4 -13.9,1.9 q -1.4,0.2 -2.7,0.3 -4.9,0.5 -9.9,0.8 -1.4,0.1 -2.8,0.2 -6.3,0.3 -12.9,0.4 -1.4,0.1 -2.8,0.1 h -2 q -6.1,0 -12,-0.3 c -1,0 -1.9,0 -2.9,-0.1 q -6,-0.3 -11.8,-0.8 -1.4,-0.1 -2.8,-0.2 -4,-0.4 -7.9,-0.9 -1.4,-0.2 -2.8,-0.4 -4.9,-0.6 -9.4,-1.4 -1.4,-0.3 -2.8,-0.6 -4,-0.7 -7.7,-1.6 -1.4,-0.3 -2.8,-0.7 -4.5,-1.2 -8.6,-2.5 -1.5,-0.5 -2.8,-1 -4.3,-1.5 -7.9,-3.2 -1.4,-0.8 -2.8,-1.5 -3.5,-2 -6,-4.1 -1.7,-1.4 -2.8,-2.8 c -1.7,-2.2 -2.6,-4.4 -2.6,-6.7 0,-3.5 0,-8.7 0,-14 0,2.3 0.9,4.6 2.6,6.7 q 1.1,1.5 2.8,2.9 2.5,2.1 6,4 1.4,0.8 2.8,1.5 3.6,1.7 7.9,3.2 1.3,0.6 2.8,1 4.1,1.4 8.6,2.5 1.4,0.4 2.8,0.7 3.7,0.9 7.7,1.7 1.4,0.3 2.8,0.5 4.5,0.8 9.4,1.5 1.4,0.2 2.8,0.4 3.9,0.4 7.9,0.8 1.4,0.1 2.8,0.3 5.8,0.5 11.8,0.8 1.4,0 2.9,0.1 5.9,0.2 12,0.2 h 2 q 1.4,0 2.8,0 6.6,-0.1 12.9,-0.5 1.4,0 2.8,-0.2 5,-0.3 9.9,-0.8 1.3,-0.1 2.7,-0.2 c 4.9,-0.6 9.5,-1.2 13.9,-1.9 q 1.4,-0.3 2.8,-0.5 8.1,-1.5 15.1,-3.4 1.4,-0.4 2.8,-0.8 c 4.2,-1.2 8.1,-2.6 11.5,-4 q 1.4,-0.7 2.8,-1.3 4.2,-2 7.2,-4.2 1.6,-1.2 2.8,-2.3 c 2.9,-2.8 4.4,-5.7 4.4,-8.7 z"
               id="path1755-4"
               style="mix-blend-mode:multiply;fill:#e5d4d4" /><path
               class="a"
               d="m 668,210.6 v 31.6 c 0,3 -1.5,5.9 -4.4,8.7 q -1.2,1.1 -2.8,2.3 -3.1,2.2 -7.2,4.2 -1.4,0.6 -2.8,1.3 c -3.4,1.4 -7.3,2.8 -11.5,4 q -1.4,0.4 -2.8,0.8 -7,1.9 -15.1,3.4 -1.4,0.2 -2.8,0.5 c -4.4,0.7 -9,1.3 -13.9,1.9 q -1.4,0.1 -2.8,0.2 -4.8,0.5 -9.8,0.8 -1.4,0.2 -2.8,0.2 -6.3,0.4 -12.9,0.5 -1.4,0 -2.8,0 h -2 q -6.1,0 -12.1,-0.2 -1.4,-0.1 -2.8,-0.1 -6,-0.3 -11.8,-0.8 -1.4,-0.1 -2.8,-0.3 -4,-0.4 -7.9,-0.8 -1.4,-0.2 -2.8,-0.4 -4.9,-0.7 -9.4,-1.5 -1.5,-0.2 -2.8,-0.5 -4,-0.8 -7.7,-1.7 -1.4,-0.3 -2.8,-0.7 -4.6,-1.1 -8.6,-2.5 -1.5,-0.4 -2.8,-1 -4.3,-1.5 -7.9,-3.2 -1.4,-0.7 -2.8,-1.5 -3.5,-1.9 -6,-4 -1.7,-1.4 -2.8,-2.9 c -1.7,-2.1 -2.6,-4.4 -2.6,-6.7 0,-9.4 0,-31.6 0,-31.6 z"
               id="path1757-3"
               style="fill:#fdc11f" /><path
               class="b"
               d="m 668,210.6 c 0,14.1 -43.1,25.5 -96.4,25.5 -53.3,0 -96.4,-11.4 -96.4,-25.5 0,-14 43.1,-25.4 96.4,-25.4 53.3,0 96.4,11.4 96.4,25.4 z"
               id="path1759-5"
               style="fill:#ffdd17" /><path
               class="c"
               d="m 650.8,207.3 c 0,9.6 -35.5,17.5 -79.2,17.5 -43.7,0 -79.2,-7.9 -79.2,-17.5 0,-9.7 35.5,-17.6 79.2,-17.6 43.7,0 79.2,7.9 79.2,17.6 z"
               id="path1761-4"
               style="fill:#fece1b" /><path
               class="d"
               d="m 492.4,207.3 c 0,-9.7 35.5,-17.6 79.2,-17.6 43.7,0 79.2,7.9 79.2,17.6 0,1.4 -0.9,2.9 -2.5,4.3 -8.6,-7.6 -39.7,-13.3 -76.7,-13.3 -37,0 -68.1,5.7 -76.7,13.3 -1.6,-1.4 -2.5,-2.9 -2.5,-4.3 z"
               id="path1763-0"
               style="fill:#faa926" /><path
               class="d"
               d="m 480.6,224.8 v 27 q -1.7,-1.4 -2.8,-2.9 v -24.1 z"
               id="path1765-2"
               style="fill:#faa926" /><path
               class="d"
               d="m 489.4,232.7 v 24.6 q -1.4,-0.7 -2.8,-1.5 v -23.1 z"
               id="path1767-3"
               style="fill:#faa926" /><path
               class="d"
               d="m 500.1,237.6 v 23.9 q -1.5,-0.4 -2.8,-1 v -22.9 z"
               id="path1769-8"
               style="fill:#faa926" /><path
               class="d"
               d="m 511.5,240.8 v 23.9 q -1.4,-0.3 -2.8,-0.7 v -23.2 z"
               id="path1771-85"
               style="fill:#faa926" /><path
               class="d"
               d="m 522,243.9 v 23 q -1.5,-0.2 -2.8,-0.5 v -22.5 z"
               id="path1773-6"
               style="fill:#faa926" /><path
               class="d"
               d="m 534.2,246 v 22.8 q -1.4,-0.2 -2.8,-0.4 V 246 Z"
               id="path1775-19"
               style="fill:#faa926" /><path
               class="d"
               d="m 544.9,246 v 23.9 q -1.4,-0.1 -2.8,-0.3 V 246 Z"
               id="path1777-0"
               style="fill:#faa926" /><path
               class="d"
               d="m 559.5,246 v 24.8 q -1.4,-0.1 -2.8,-0.1 V 246 Z"
               id="path1779-7"
               style="fill:#faa926" /><path
               class="d"
               d="M 576.4,243.9 V 271 q -1.4,0 -2.8,0 v -27.1 z"
               id="path1781-4"
               style="fill:#faa926" /><path
               class="d"
               d="m 592.1,240.8 v 29.5 q -1.4,0.2 -2.8,0.2 v -29.7 z"
               id="path1783-8"
               style="fill:#faa926" /><path
               class="d"
               d="m 604.7,240.8 v 28.5 q -1.4,0.1 -2.8,0.2 v -28.7 z"
               id="path1785-3"
               style="fill:#faa926" /><path
               class="d"
               d="m 621.4,237.6 v 29.3 q -1.4,0.2 -2.8,0.5 v -29.8 z"
               id="path1787-4"
               style="fill:#faa926" /><path
               class="d"
               d="m 639.3,234.4 v 28.3 q -1.4,0.4 -2.8,0.8 v -29.1 z"
               id="path1789-7"
               style="fill:#faa926" /><path
               class="d"
               d="m 653.6,226.9 v 30.5 q -1.4,0.6 -2.8,1.3 v -31.8 z"
               id="path1791-0"
               style="fill:#faa926" /><path
               class="d"
               d="m 663.6,221.7 v 29.2 q -1.2,1.1 -2.8,2.3 v -31.5 z"
               id="path1793-37"
               style="fill:#faa926" /><path
               class="e"
               d="m 668,228.3 v 13.9 c 0,3 -1.5,5.9 -4.4,8.7 q -1.2,1.1 -2.8,2.3 -3.1,2.2 -7.2,4.2 -1.4,0.6 -2.8,1.3 c -3.4,1.4 -7.3,2.8 -11.5,4 q -1.4,0.4 -2.8,0.8 -7,1.9 -15.1,3.4 -1.4,0.2 -2.8,0.5 c -4.4,0.7 -9,1.3 -13.9,1.9 q -1.4,0.1 -2.8,0.2 -4.8,0.5 -9.8,0.8 -1.4,0.2 -2.8,0.2 -6.3,0.4 -12.9,0.5 -1.4,0 -2.8,0 h -2 q -6.1,0 -12.1,-0.2 -1.4,-0.1 -2.8,-0.1 -6,-0.3 -11.8,-0.8 -1.4,-0.1 -2.8,-0.3 -4,-0.4 -7.9,-0.8 -1.4,-0.2 -2.8,-0.4 -4.9,-0.7 -9.4,-1.5 -1.5,-0.2 -2.8,-0.5 -4,-0.8 -7.7,-1.7 -1.4,-0.3 -2.8,-0.7 -4.6,-1.1 -8.6,-2.5 -1.5,-0.4 -2.8,-1 -4.3,-1.5 -7.9,-3.2 -1.4,-0.7 -2.8,-1.5 -3.5,-1.9 -6,-4 -1.7,-1.4 -2.8,-2.9 c -1.7,-2.1 -2.6,-4.4 -2.6,-6.7 0,-3.5 0,-8.7 0,-13.9 0,2.3 0.9,4.5 2.6,6.6 q 1.1,1.5 2.8,2.9 2.5,2.1 6,4.1 1.4,0.7 2.8,1.4 3.6,1.8 7.9,3.3 1.3,0.5 2.8,1 4,1.3 8.6,2.5 1.4,0.3 2.8,0.7 3.7,0.9 7.7,1.6 1.3,0.3 2.8,0.5 4.5,0.9 9.4,1.5 1.4,0.2 2.8,0.4 c 2.6,0.3 5.2,0.6 7.9,0.9 q 1.4,0.1 2.8,0.2 5.8,0.5 11.8,0.8 1.4,0.1 2.8,0.1 6,0.2 12.1,0.2 h 2 q 1.4,0 2.8,0 6.6,-0.1 12.9,-0.4 1.4,-0.1 2.8,-0.2 5,-0.3 9.8,-0.8 1.4,-0.2 2.8,-0.3 c 4.9,-0.5 9.5,-1.2 13.9,-1.9 q 1.4,-0.2 2.8,-0.5 8.1,-1.5 15.1,-3.3 1.4,-0.4 2.8,-0.9 c 4.2,-1.2 8.1,-2.5 11.5,-4 q 1.4,-0.6 2.8,-1.3 4.1,-2 7.2,-4.2 1.6,-1.1 2.8,-2.3 c 2.9,-2.7 4.4,-5.6 4.4,-8.6 z"
               id="path1795-30"
               style="mix-blend-mode:multiply;fill:#e5d4d4" /><path
               class="a"
               d="M 676.3,170.4 V 202 c 0,3 -1.5,5.9 -4.4,8.6 q -1.2,1.1 -2.8,2.3 -3,2.2 -7.2,4.2 -1.4,0.7 -2.8,1.3 c -3.4,1.5 -7.3,2.8 -11.5,4 q -1.4,0.4 -2.8,0.9 -7,1.8 -15.1,3.3 -1.4,0.2 -2.8,0.5 c -4.4,0.7 -9,1.4 -13.9,1.9 q -1.4,0.1 -2.7,0.3 -4.9,0.4 -9.9,0.8 -1.4,0.1 -2.8,0.2 -6.3,0.3 -12.9,0.4 -1.4,0 -2.8,0 h -2 q -6.1,0 -12,-0.2 -1.5,0 -2.9,-0.1 -6,-0.3 -11.8,-0.8 -1.4,-0.1 -2.8,-0.3 -4,-0.3 -7.9,-0.8 -1.4,-0.2 -2.8,-0.4 -4.9,-0.7 -9.4,-1.5 -1.4,-0.2 -2.8,-0.5 -4,-0.7 -7.7,-1.7 -1.4,-0.3 -2.8,-0.6 -4.5,-1.2 -8.6,-2.6 -1.5,-0.4 -2.8,-0.9 -4.3,-1.6 -7.9,-3.3 -1.4,-0.7 -2.8,-1.4 -3.5,-2 -6,-4.1 -1.7,-1.4 -2.8,-2.9 c -1.7,-2.1 -2.6,-4.4 -2.6,-6.6 0,-9.4 0,-31.6 0,-31.6 z"
               id="path1797-7"
               style="fill:#fdc11f" /><path
               class="b"
               d="m 676.3,170.4 c 0,14.1 -43.1,25.5 -96.4,25.5 -53.3,0 -96.4,-11.4 -96.4,-25.5 0,-14.1 43.1,-25.5 96.4,-25.5 53.3,0 96.4,11.4 96.4,25.5 z"
               id="path1799-1"
               style="fill:#ffdd17" /><path
               class="c"
               d="m 659.1,167 c 0,9.7 -35.5,17.5 -79.2,17.5 -43.7,0 -79.1,-7.8 -79.1,-17.5 0,-9.7 35.4,-17.6 79.1,-17.6 43.7,0 79.2,7.9 79.2,17.6 z"
               id="path1801-9"
               style="fill:#fece1b" /><path
               class="d"
               d="m 500.8,167 c 0,-9.7 35.4,-17.6 79.1,-17.6 43.7,0 79.2,7.9 79.2,17.6 0,1.5 -0.9,2.9 -2.5,4.3 -8.6,-7.6 -39.7,-13.2 -76.7,-13.2 -37,0 -68.1,5.6 -76.7,13.2 -1.6,-1.4 -2.4,-2.8 -2.4,-4.3 z"
               id="path1803-94"
               style="fill:#faa926" /><path
               class="d"
               d="m 488.9,184.5 v 27 q -1.7,-1.4 -2.8,-2.9 v -24.1 z"
               id="path1805-3"
               style="fill:#faa926" /><path
               class="d"
               d="M 497.7,192.4 V 217 q -1.4,-0.7 -2.8,-1.4 v -23.2 z"
               id="path1807-6"
               style="fill:#faa926" /><path
               class="d"
               d="m 508.4,197.3 v 23.9 q -1.5,-0.4 -2.8,-0.9 v -23 z"
               id="path1809-9"
               style="fill:#faa926" /><path
               class="d"
               d="m 519.8,200.5 v 23.9 q -1.4,-0.3 -2.8,-0.6 v -23.3 z"
               id="path1811-9"
               style="fill:#faa926" /><path
               class="d"
               d="m 530.3,203.7 v 22.9 q -1.4,-0.2 -2.8,-0.5 v -22.4 z"
               id="path1813-58"
               style="fill:#faa926" /><path
               class="d"
               d="m 542.5,205.7 v 22.8 q -1.4,-0.2 -2.8,-0.4 v -22.4 z"
               id="path1815-04"
               style="fill:#faa926" /><path
               class="d"
               d="m 553.2,205.7 v 23.9 q -1.4,-0.1 -2.8,-0.3 v -23.6 z"
               id="path1817-45"
               style="fill:#faa926" /><path
               class="d"
               d="m 567.9,205.7 v 24.8 q -1.5,0 -2.9,-0.1 v -24.7 z"
               id="path1819-3"
               style="fill:#faa926" /><path
               class="d"
               d="m 584.7,203.7 v 27 q -1.4,0 -2.8,0 v -27 z"
               id="path1821-9"
               style="fill:#faa926" /><path
               class="d"
               d="m 600.4,200.5 v 29.6 q -1.4,0.1 -2.8,0.2 v -29.8 z"
               id="path1823-0"
               style="fill:#faa926" /><path
               class="d"
               d="M 613,200.5 V 229 q -1.4,0.1 -2.7,0.3 v -28.8 z"
               id="path1825-8"
               style="fill:#faa926" /><path
               class="d"
               d="m 629.7,197.3 v 29.3 q -1.4,0.2 -2.8,0.5 v -29.8 z"
               id="path1827-5"
               style="fill:#faa926" /><path
               class="d"
               d="m 647.6,194.2 v 28.2 q -1.4,0.4 -2.8,0.9 v -29.1 z"
               id="path1829-4"
               style="fill:#faa926" /><path
               class="d"
               d="m 661.9,186.6 v 30.5 q -1.4,0.7 -2.8,1.3 v -31.8 z"
               id="path1831-08"
               style="fill:#faa926" /><path
               class="d"
               d="m 671.9,181.4 v 29.2 q -1.2,1.1 -2.8,2.3 v -31.5 z"
               id="path1833-52"
               style="fill:#faa926" /><path
               class="e"
               d="m 676.3,188 v 14 c 0,3 -1.5,5.9 -4.4,8.6 q -1.2,1.1 -2.8,2.3 -3,2.2 -7.2,4.2 -1.4,0.7 -2.8,1.3 c -3.4,1.5 -7.3,2.8 -11.5,4 q -1.4,0.4 -2.8,0.9 -7,1.8 -15.1,3.3 -1.4,0.2 -2.8,0.5 c -4.4,0.7 -9,1.4 -13.9,1.9 q -1.4,0.1 -2.7,0.3 -4.9,0.4 -9.9,0.8 -1.4,0.1 -2.8,0.2 -6.3,0.3 -12.9,0.4 -1.4,0 -2.8,0 h -2 q -6.1,0 -12,-0.2 -1.5,0 -2.9,-0.1 -6,-0.3 -11.8,-0.8 -1.4,-0.1 -2.8,-0.3 -4,-0.3 -7.9,-0.8 -1.4,-0.2 -2.8,-0.4 -4.9,-0.7 -9.4,-1.5 -1.4,-0.2 -2.8,-0.5 -4,-0.7 -7.7,-1.7 -1.4,-0.3 -2.8,-0.6 -4.5,-1.2 -8.6,-2.6 -1.5,-0.4 -2.8,-0.9 -4.3,-1.6 -7.9,-3.3 -1.4,-0.7 -2.8,-1.4 -3.5,-2 -6,-4.1 -1.7,-1.4 -2.8,-2.9 c -1.7,-2.1 -2.6,-4.4 -2.6,-6.6 0,-3.5 0,-8.8 0,-14 0,2.3 0.9,4.5 2.6,6.7 q 1.1,1.4 2.8,2.8 2.5,2.1 6,4.1 1.4,0.7 2.8,1.5 3.6,1.7 7.9,3.2 1.3,0.5 2.8,1 4.1,1.3 8.6,2.5 1.4,0.4 2.8,0.7 3.7,0.9 7.7,1.6 1.4,0.3 2.8,0.6 4.5,0.8 9.4,1.4 1.4,0.2 2.8,0.4 3.9,0.5 7.9,0.9 1.4,0.1 2.8,0.2 5.8,0.5 11.8,0.8 1.4,0.1 2.9,0.1 5.9,0.3 12,0.3 h 2 q 1.4,0 2.8,-0.1 6.6,-0.1 12.9,-0.4 1.4,-0.1 2.8,-0.2 5,-0.3 9.9,-0.8 1.3,-0.1 2.7,-0.3 c 4.9,-0.5 9.5,-1.2 13.9,-1.9 q 1.4,-0.2 2.8,-0.5 8.1,-1.4 15.1,-3.3 1.4,-0.4 2.8,-0.8 c 4.2,-1.3 8.1,-2.6 11.5,-4.1 q 1.4,-0.6 2.8,-1.2 4.2,-2.1 7.2,-4.3 1.6,-1.1 2.8,-2.3 c 2.9,-2.7 4.4,-5.6 4.4,-8.6 z"
               id="path1835-5"
               style="mix-blend-mode:multiply;fill:#e5d4d4" /><path
               class="a"
               d="m 686.7,132 v 31.6 c 0,3 -1.5,5.9 -4.4,8.6 q -1.2,1.2 -2.8,2.3 -3.1,2.2 -7.2,4.3 -1.4,0.6 -2.9,1.2 c -3.3,1.5 -7.2,2.8 -11.4,4.1 q -1.4,0.4 -2.8,0.8 -7,1.9 -15.1,3.3 -1.4,0.3 -2.8,0.5 c -4.4,0.7 -9,1.4 -13.9,1.9 q -1.4,0.2 -2.8,0.3 -4.8,0.5 -9.8,0.8 -1.4,0.1 -2.8,0.2 -6.3,0.3 -12.9,0.4 -1.4,0.1 -2.8,0.1 h -2 q -6.1,0 -12.1,-0.3 -1.4,0 -2.8,-0.1 -6,-0.3 -11.8,-0.8 -1.4,-0.1 -2.9,-0.2 c -2.6,-0.3 -5.2,-0.6 -7.8,-0.9 q -1.4,-0.2 -2.8,-0.4 -4.9,-0.6 -9.4,-1.4 -1.5,-0.3 -2.8,-0.6 -4,-0.7 -7.7,-1.6 -1.4,-0.3 -2.8,-0.7 -4.6,-1.2 -8.6,-2.5 -1.5,-0.5 -2.8,-1 -4.3,-1.5 -7.9,-3.2 -1.5,-0.8 -2.8,-1.5 -3.5,-2 -6,-4.1 -1.7,-1.4 -2.8,-2.8 c -1.7,-2.2 -2.6,-4.4 -2.6,-6.7 0,-9.4 0,-31.6 0,-31.6 z"
               id="path1837-5"
               style="fill:#fdc11f" /><path
               class="b"
               d="m 686.7,132 c 0,14.1 -43.2,25.5 -96.4,25.5 -53.3,0 -96.4,-11.4 -96.4,-25.5 0,-14.1 43.1,-25.5 96.4,-25.5 53.2,0 96.4,11.4 96.4,25.5 z"
               id="path1839-04"
               style="fill:#ffdd17" /><path
               class="c"
               d="m 669.4,128.6 c 0,9.7 -35.4,17.6 -79.1,17.6 -43.7,0 -79.2,-7.9 -79.2,-17.6 0,-9.7 35.5,-17.5 79.2,-17.5 43.7,0 79.1,7.8 79.1,17.5 z"
               id="path1841-5"
               style="fill:#fece1b" /><path
               class="d"
               d="m 511.1,128.6 c 0,-9.7 35.5,-17.5 79.2,-17.5 43.7,0 79.1,7.8 79.1,17.5 0,1.5 -0.8,2.9 -2.4,4.3 -8.6,-7.6 -39.7,-13.2 -76.7,-13.2 -37,0 -68.1,5.6 -76.7,13.2 -1.6,-1.4 -2.5,-2.8 -2.5,-4.3 z"
               id="path1843-2"
               style="fill:#faa926" /><path
               class="d"
               d="m 499.3,146.2 v 26.9 q -1.7,-1.4 -2.8,-2.8 v -24.1 z"
               id="path1845-3"
               style="fill:#faa926" /><path
               class="d"
               d="m 508.1,154.1 v 24.6 q -1.5,-0.8 -2.8,-1.5 v -23.1 z"
               id="path1847-6"
               style="fill:#faa926" /><path
               class="d"
               d="m 518.8,158.9 v 24 q -1.5,-0.5 -2.8,-1 v -23 z"
               id="path1849-7"
               style="fill:#faa926" /><path
               class="d"
               d="m 530.2,162.2 v 23.9 q -1.4,-0.3 -2.8,-0.7 v -23.2 z"
               id="path1851-4"
               style="fill:#faa926" /><path
               class="d"
               d="m 540.7,165.3 v 23 q -1.5,-0.3 -2.8,-0.6 v -22.4 z"
               id="path1853-0"
               style="fill:#faa926" /><path
               class="d"
               d="m 552.9,167.4 v 22.7 q -1.4,-0.2 -2.8,-0.4 v -22.3 z"
               id="path1855-7"
               style="fill:#faa926" /><path
               class="d"
               d="m 563.6,167.4 v 23.8 q -1.4,-0.1 -2.9,-0.2 v -23.6 z"
               id="path1857-5"
               style="fill:#faa926" /><path
               class="d"
               d="m 578.2,167.4 v 24.7 q -1.4,0 -2.8,-0.1 v -24.6 z"
               id="path1859-7"
               style="fill:#faa926" /><path
               class="d"
               d="m 595.1,165.3 v 27 q -1.4,0.1 -2.8,0.1 v -27.1 z"
               id="path1861-0"
               style="fill:#faa926" /><path
               class="d"
               d="m 610.8,162.2 v 29.5 q -1.4,0.1 -2.8,0.2 v -29.7 z"
               id="path1863-15"
               style="fill:#faa926" /><path
               class="d"
               d="m 623.4,162.2 v 28.4 q -1.4,0.2 -2.8,0.3 v -28.7 z"
               id="path1865-83"
               style="fill:#faa926" /><path
               class="d"
               d="m 640.1,158.9 v 29.3 q -1.4,0.3 -2.8,0.5 v -29.8 z"
               id="path1867-7"
               style="fill:#faa926" /><path
               class="d"
               d="m 658,155.8 v 28.3 q -1.4,0.4 -2.8,0.8 v -29.1 z"
               id="path1869-7"
               style="fill:#faa926" /><path
               class="d"
               d="m 672.3,148.2 v 30.6 q -1.4,0.6 -2.9,1.2 v -31.8 z"
               id="path1871-3"
               style="fill:#faa926" /><path
               class="d"
               d="m 682.3,143 v 29.2 q -1.2,1.2 -2.8,2.3 V 143 Z"
               id="path1873-7"
               style="fill:#faa926" /><path
               class="e"
               d="m 686.7,149.6 v 14 c 0,3 -1.5,5.9 -4.4,8.6 q -1.2,1.2 -2.8,2.3 -3.1,2.2 -7.2,4.3 -1.4,0.6 -2.9,1.2 c -3.3,1.5 -7.2,2.8 -11.4,4.1 q -1.4,0.4 -2.8,0.8 -7,1.9 -15.1,3.3 -1.4,0.3 -2.8,0.5 c -4.4,0.7 -9,1.4 -13.9,1.9 q -1.4,0.2 -2.8,0.3 -4.8,0.5 -9.8,0.8 -1.4,0.1 -2.8,0.2 -6.3,0.3 -12.9,0.4 -1.4,0.1 -2.8,0.1 h -2 q -6.1,0 -12.1,-0.3 -1.4,0 -2.8,-0.1 -6,-0.3 -11.8,-0.8 -1.4,-0.1 -2.9,-0.2 c -2.6,-0.3 -5.2,-0.6 -7.8,-0.9 q -1.4,-0.2 -2.8,-0.4 -4.9,-0.6 -9.4,-1.4 -1.5,-0.3 -2.8,-0.6 -4,-0.7 -7.7,-1.6 -1.4,-0.3 -2.8,-0.7 -4.6,-1.2 -8.6,-2.5 -1.5,-0.5 -2.8,-1 -4.3,-1.5 -7.9,-3.2 -1.5,-0.8 -2.8,-1.5 -3.5,-2 -6,-4.1 -1.7,-1.4 -2.8,-2.8 c -1.7,-2.2 -2.6,-4.4 -2.6,-6.7 0,-3.5 0,-8.7 0,-14 0,2.3 0.9,4.6 2.6,6.7 q 1.1,1.5 2.8,2.9 2.5,2.1 6,4 1.3,0.8 2.8,1.5 3.6,1.7 7.9,3.3 1.3,0.5 2.8,0.9 4,1.4 8.6,2.5 1.4,0.4 2.8,0.7 3.7,0.9 7.7,1.7 1.3,0.3 2.8,0.5 4.5,0.8 9.4,1.5 1.4,0.2 2.8,0.4 c 2.6,0.3 5.2,0.6 7.8,0.8 q 1.5,0.2 2.9,0.3 5.8,0.5 11.8,0.8 c 1,0 1.9,0.1 2.8,0.1 q 6,0.2 12.1,0.2 h 2 q 1.4,0 2.8,0 6.6,-0.1 12.9,-0.5 1.4,0 2.8,-0.2 5,-0.3 9.8,-0.8 1.4,-0.1 2.8,-0.2 c 4.9,-0.6 9.5,-1.2 13.9,-1.9 q 1.4,-0.3 2.8,-0.5 8.1,-1.5 15.1,-3.4 1.4,-0.4 2.8,-0.8 c 4.2,-1.2 8.1,-2.6 11.4,-4 q 1.5,-0.7 2.9,-1.3 4.1,-2 7.2,-4.2 1.6,-1.2 2.8,-2.3 c 2.9,-2.8 4.4,-5.7 4.4,-8.7 z"
               id="path1875-6"
               style="mix-blend-mode:multiply;fill:#e5d4d4" /><path
               class="f"
               d="m 459,216.1 q 0,2.4 -0.1,4.8 -0.1,1.9 -0.4,3.8 -0.4,4.3 -1.2,8.4 -0.4,2 -0.9,3.9 -2.1,8 -5.6,15.3 c -0.6,1.3 -1.2,2.6 -1.9,3.9 q -2.4,4.5 -5.4,8.6 c -0.9,1.4 -1.9,2.7 -2.9,3.9 -2.3,3 -4.9,5.8 -7.6,8.4 q -2.1,2.1 -4.3,3.9 -5.3,4.4 -11.1,7.8 -3.6,2.2 -7.3,3.9 c -10.9,5.1 -23,8 -35.8,8 H 355.3 V 131.6 c 0,0 5.7,0 19.2,0 13.8,0 26.9,3.3 38.5,9.3 2.3,1.1 4.6,2.5 6.8,3.9 3.9,2.4 7.6,5.2 11,8.3 1.4,1.3 2.7,2.6 4.1,3.9 4.3,4.5 8.2,9.4 11.5,14.7 0.7,1.2 1.5,2.5 2.2,3.8 q 4.2,7.5 6.7,15.9 c 0.4,1.3 0.8,2.6 1.1,3.9 q 1.6,6.2 2.2,12.6 0.2,2 0.3,3.9 0.1,2.2 0.1,4.3 z"
               id="path1877-2"
               style="fill:#c8891c" /><path
               class="g"
               d="m 458.9,220.9 q -0.1,1.9 -0.4,3.8 h -23.6 v -3.8 z"
               id="path1879-4"
               style="fill:#a47111" /><path
               class="g"
               d="m 457.3,233.1 q -0.4,2 -0.9,3.9 h -29 v -3.9 z"
               id="path1881-9"
               style="fill:#a47111" /><path
               class="g"
               d="m 450.8,252.3 c -0.6,1.3 -1.2,2.6 -1.9,3.9 h -28.6 v -3.9 z"
               id="path1883-42"
               style="fill:#a47111" /><path
               class="g"
               d="m 443.5,264.8 c -0.9,1.4 -1.9,2.7 -2.9,3.9 h -29.7 v -3.9 z"
               id="path1885-3"
               style="fill:#a47111" /><path
               class="g"
               d="m 433,277.1 q -2.1,2.1 -4.3,3.9 h -27.8 v -3.9 z"
               id="path1887-5"
               style="fill:#a47111" /><path
               class="g"
               d="m 417.6,288.8 q -3.6,2.2 -7.3,3.9 h -23.9 v -3.9 z"
               id="path1889-5"
               style="fill:#a47111" /><path
               class="g"
               d="m 458.9,211.8 h -25.6 v -3.9 h 25.3 q 0.2,2 0.3,3.9 z"
               id="path1891-4"
               style="fill:#a47111" /><path
               class="g"
               d="m 456.4,195.3 h -26 v -3.9 h 24.9 c 0.4,1.3 0.8,2.6 1.1,3.9 z"
               id="path1893-87"
               style="fill:#a47111" /><path
               class="g"
               d="m 448.6,175.5 h -26 v -3.8 h 23.8 c 0.7,1.2 1.5,2.5 2.2,3.8 z"
               id="path1895-3"
               style="fill:#a47111" /><path
               class="g"
               d="m 434.9,157 h -29 v -3.9 h 24.9 c 1.4,1.3 2.7,2.6 4.1,3.9 z"
               id="path1897-65"
               style="fill:#a47111" /><path
               class="g"
               d="m 419.8,144.8 h -28.1 v -3.9 H 413 c 2.3,1.1 4.6,2.5 6.8,3.9 z"
               id="path1899-0"
               style="fill:#a47111" /><path
               class="c"
               d="m 439.8,216.1 c 0,46.7 -37.8,84.6 -84.5,84.6 -46.7,0 -84.6,-37.9 -84.6,-84.6 0,-46.7 37.9,-84.5 84.6,-84.5 46.7,0 84.5,37.8 84.5,84.5 z"
               id="path1901-8"
               style="fill:#fece1b" /><path
               class="h"
               d="m 425.4,216.1 c 0,38.8 -31.4,70.2 -70.1,70.2 -38.8,0 -70.2,-31.4 -70.2,-70.2 0,-38.7 31.4,-70.1 70.2,-70.1 38.7,0 70.1,31.4 70.1,70.1 z"
               id="path1903-9"
               style="fill:#fcba21" /><path
               class="i"
               d="m 407.7,262.7 c -12.8,14.5 -31.6,23.6 -52.4,23.6 -38.8,0 -70.2,-31.4 -70.2,-70.2 0,-20.8 9.1,-39.6 23.6,-52.4 -11,12.4 -17.7,28.7 -17.7,46.6 0,38.7 31.4,70.1 70.1,70.1 17.9,0 34.2,-6.7 46.6,-17.7 z"
               id="path1905-7"
               style="fill:#c27a1c" /><path
               class="f"
               d="m 356,272.7 v -14.6 c -8.3,-0.2 -17,-2.7 -22,-6.4 l 3.4,-9.6 c 5.2,3.4 12.7,6.2 20.8,6.2 10.2,0 17.1,-5.9 17.1,-14.1 0,-8 -5.6,-12.9 -16.3,-17.2 -14.7,-5.8 -23.8,-12.4 -23.8,-25 0,-11.9 8.6,-21 21.8,-23.2 v -14.6 h 9 v 14 c 8.6,0.3 14.5,2.6 18.7,5.1 l -3.6,9.5 c -3,-1.7 -8.9,-4.9 -18.2,-4.9 -11.1,0 -15.2,6.6 -15.2,12.4 0,7.5 5.3,11.3 17.8,16.4 14.9,6.1 22.4,13.6 22.4,26.4 0,11.4 -7.9,22.1 -22.8,24.6 v 15 z"
               id="path1907-1"
               style="fill:#c8891c" /><path
               class="f"
               d="m 735.8,473.5 q -1.8,1.5 -3.7,2.8 -1.6,1.2 -3.2,2.2 -3.6,2.3 -7.4,4.2 -1.7,1 -3.5,1.8 -7.6,3.4 -15.5,5.3 c -1.3,0.3 -2.8,0.6 -4.2,0.9 q -5,0.9 -10.1,1.2 -2.4,0.2 -4.9,0.2 c -3.7,0 -7.5,-0.2 -11.3,-0.7 q -2.9,-0.4 -5.7,-1 -6.7,-1.3 -13.1,-3.7 -3.9,-1.4 -7.6,-3.2 C 634.8,478.2 625,470.5 617,460.6 l -12,-15 131.8,-105.9 c 0,0 3.6,4.4 12,14.9 8.7,10.8 14.3,23.1 16.9,35.9 0.5,2.5 0.9,5.1 1.2,7.7 0.5,4.6 0.7,9.2 0.4,13.8 -0.1,1.9 -0.3,3.8 -0.5,5.6 -0.7,6.2 -2.1,12.3 -4.2,18.2 -0.5,1.4 -1,2.8 -1.6,4.1 q -3.3,8 -8.2,15.2 c -0.7,1.1 -1.5,2.2 -2.3,3.3 q -3.8,5.1 -8.5,9.6 -1.4,1.4 -2.8,2.7 -1.7,1.4 -3.4,2.8 z"
               id="path1909-3"
               style="fill:#c8891c" /><path
               class="g"
               d="m 732.1,476.3 q -1.6,1.2 -3.2,2.2 l -14.8,-18.4 3,-2.4 z"
               id="path1911-1"
               style="fill:#a47111" /><path
               class="g"
               d="m 721.5,482.7 q -1.7,1 -3.5,1.8 l -18.2,-22.6 3,-2.4 z"
               id="path1913-7"
               style="fill:#a47111" /><path
               class="g"
               d="m 702.5,489.8 c -1.3,0.3 -2.8,0.6 -4.2,0.9 l -17.9,-22.3 3,-2.4 z"
               id="path1915-2"
               style="fill:#a47111" /><path
               class="g"
               d="m 688.2,491.9 q -2.4,0.2 -4.9,0.2 l -18.5,-23.1 3,-2.5 z"
               id="path1917-5"
               style="fill:#a47111" /><path
               class="g"
               d="m 672,491.4 q -2.9,-0.4 -5.7,-1 l -17.4,-21.6 3,-2.4 z"
               id="path1919-9"
               style="fill:#a47111" /><path
               class="g"
               d="m 653.2,486.7 q -3.9,-1.4 -7.6,-3.2 l -14.9,-18.6 3,-2.4 z"
               id="path1921-2"
               style="fill:#a47111" /><path
               class="g"
               d="m 739.2,470.7 -16.1,-19.9 3.1,-2.5 15.8,19.7 q -1.4,1.4 -2.8,2.7 z"
               id="path1923-6"
               style="fill:#a47111" /><path
               class="g"
               d="m 750.5,458.4 -16.3,-20.3 3,-2.4 15.6,19.4 c -0.7,1.1 -1.5,2.2 -2.3,3.3 z"
               id="path1925-9"
               style="fill:#a47111" /><path
               class="g"
               d="m 761,439.9 -16.3,-20.2 3,-2.5 14.9,18.6 c -0.5,1.4 -1,2.8 -1.6,4.1 z"
               id="path1927-7"
               style="fill:#a47111" /><path
               class="g"
               d="m 766.8,417.6 -18.1,-22.6 3,-2.4 15.6,19.4 c -0.1,1.9 -0.3,3.8 -0.5,5.6 z"
               id="path1929-8"
               style="fill:#a47111" /><path
               class="g"
               d="m 766.9,398.2 -17.6,-21.9 3,-2.4 13.4,16.6 c 0.5,2.5 0.9,5.1 1.2,7.7 z"
               id="path1931-38"
               style="fill:#a47111" /><path
               class="c"
               d="M 723.8,458.5 C 687.4,487.8 634.2,482 605,445.6 575.7,409.2 581.5,356 617.9,326.7 c 36.4,-29.2 89.6,-23.4 118.9,12.9 29.2,36.4 23.4,89.7 -13,118.9 z"
               id="path1933-04"
               style="fill:#fece1b" /><path
               class="h"
               d="m 714.8,447.3 c -30.2,24.3 -74.3,19.5 -98.6,-10.7 -24.3,-30.2 -19.5,-74.4 10.7,-98.7 30.2,-24.3 74.4,-19.5 98.7,10.7 24.2,30.3 19.4,74.4 -10.8,98.7 z"
               id="path1935-8"
               style="fill:#fcba21" /><path
               class="i"
               d="m 667.4,462.7 c -19.3,-1 -38.1,-9.9 -51.2,-26.1 -24.3,-30.2 -19.5,-74.4 10.7,-98.7 16.3,-13.1 36.6,-17.7 55.7,-14.5 -16.6,-0.8 -33.5,4.2 -47.5,15.4 -30.2,24.3 -35,68.5 -10.7,98.7 11.2,13.9 26.7,22.4 43,25.2 z"
               id="path1937-5"
               style="fill:#c27a1c" /><path
               class="f"
               d="m 627.3,428.6 11.3,-9.1 c -5.1,-6.6 -8.5,-15 -8.8,-21.2 l 9.7,-3.3 c 0.5,6.2 3.1,13.7 8.1,20 6.4,8 15.4,9.7 21.8,4.6 6.2,-5 6.5,-12.5 3.2,-23.5 -4.7,-15.1 -5.3,-26.3 4.5,-34.2 9.3,-7.5 21.8,-6.5 31.8,2.5 l 11.3,-9.2 5.6,7 -10.9,8.8 c 5.2,6.9 7.1,12.9 7.8,17.7 l -9.7,3.2 c -0.5,-3.5 -1.7,-10.1 -7.5,-17.2 -7,-8.7 -14.8,-7.8 -19.3,-4.2 -5.8,4.7 -5.4,11.2 -1.6,24.2 4.6,15.4 3.5,26 -6.6,34 -8.8,7.1 -22.1,7.7 -33.3,-2.4 l -11.7,9.4 z"
               id="path1939-2"
               style="fill:#c8891c" /><path
               class="f"
               d="m 697.5,421.3 q 0.1,2.4 -0.1,4.7 -0.1,2 -0.3,3.9 -0.4,4.3 -1.3,8.4 -0.4,2 -0.8,3.9 -2.1,8 -5.6,15.3 c -0.6,1.3 -1.3,2.6 -1.9,3.8 q -2.5,4.6 -5.4,8.7 c -0.9,1.3 -1.9,2.6 -3,3.9 -2.3,3 -4.8,5.8 -7.6,8.4 q -2.1,2 -4.3,3.8 -5.2,4.5 -11.1,7.9 -3.5,2.2 -7.3,3.9 c -10.9,5.1 -23,7.9 -35.8,7.9 h -19.2 v -169 c 0,0 5.8,0 19.2,0 13.9,0 27,3.3 38.5,9.3 2.4,1.1 4.6,2.4 6.8,3.8 3.9,2.5 7.6,5.3 11.1,8.4 1.4,1.2 2.7,2.5 4,3.9 4.4,4.4 8.2,9.4 11.5,14.7 0.8,1.2 1.6,2.5 2.3,3.8 q 4.1,7.5 6.7,15.9 c 0.3,1.3 0.7,2.5 1.1,3.8 q 1.5,6.2 2.1,12.7 0.3,1.9 0.3,3.9 0.1,2.1 0.1,4.3 z"
               id="path1941-65"
               style="fill:#c8891c" /><path
               class="g"
               d="m 697.4,426 q -0.1,2 -0.3,3.9 H 673.5 V 426 Z"
               id="path1943-7"
               style="fill:#a47111" /><path
               class="g"
               d="m 695.8,438.3 q -0.4,2 -0.8,3.9 h -29.1 v -3.9 z"
               id="path1945-4"
               style="fill:#a47111" /><path
               class="g"
               d="m 689.4,457.5 c -0.6,1.3 -1.3,2.6 -1.9,3.8 h -28.6 v -3.8 z"
               id="path1947-7"
               style="fill:#a47111" /><path
               class="g"
               d="m 682.1,470 c -0.9,1.3 -1.9,2.6 -3,3.9 H 649.5 V 470 Z"
               id="path1949-3"
               style="fill:#a47111" /><path
               class="g"
               d="m 671.5,482.3 q -2.1,2 -4.3,3.8 h -27.7 v -3.8 z"
               id="path1951-09"
               style="fill:#a47111" /><path
               class="g"
               d="m 656.1,494 q -3.5,2.2 -7.3,3.9 H 625 V 494 Z"
               id="path1953-7"
               style="fill:#a47111" /><path
               class="g"
               d="m 697.4,417 h -25.5 v -3.9 h 25.2 q 0.3,1.9 0.3,3.9 z"
               id="path1955-3"
               style="fill:#a47111" /><path
               class="g"
               d="m 695,400.4 h -26 v -3.8 h 24.9 c 0.3,1.3 0.7,2.5 1.1,3.8 z"
               id="path1957-1"
               style="fill:#a47111" /><path
               class="g"
               d="m 687.2,380.7 h -26.1 v -3.8 h 23.8 c 0.8,1.2 1.6,2.5 2.3,3.8 z"
               id="path1959-1"
               style="fill:#a47111" /><path
               class="g"
               d="m 673.4,362.2 h -29 v -3.9 h 25 c 1.4,1.2 2.7,2.5 4,3.9 z"
               id="path1961-4"
               style="fill:#a47111" /><path
               class="g"
               d="m 658.3,349.9 h -28.1 v -3.8 h 21.3 c 2.4,1.1 4.6,2.4 6.8,3.8 z"
               id="path1963-7"
               style="fill:#a47111" /><path
               class="c"
               d="m 678.4,421.3 c 0,46.7 -37.9,84.5 -84.6,84.5 -46.7,0 -84.5,-37.8 -84.5,-84.5 0,-46.7 37.8,-84.5 84.5,-84.5 46.7,0 84.6,37.8 84.6,84.5 z"
               id="path1965-1"
               style="fill:#fece1b" /><path
               class="h"
               d="m 664,421.3 c 0,38.8 -31.4,70.2 -70.2,70.2 -38.7,0 -70.1,-31.4 -70.1,-70.2 0,-38.8 31.4,-70.2 70.1,-70.2 38.8,0 70.2,31.4 70.2,70.2 z"
               id="path1967-03"
               style="fill:#fcba21" /><path
               class="i"
               d="m 646.3,467.9 c -12.9,14.4 -31.6,23.6 -52.5,23.6 -38.7,0 -70.1,-31.4 -70.1,-70.2 0,-20.9 9.1,-39.6 23.5,-52.5 -11,12.4 -17.7,28.8 -17.7,46.6 0,38.8 31.4,70.2 70.2,70.2 17.9,0 34.2,-6.7 46.6,-17.7 z"
               id="path1969-5"
               style="fill:#c27a1c" /><path
               class="f"
               d="m 594.6,477.8 v -14.5 c -8.4,-0.2 -17,-2.8 -22.1,-6.4 l 3.5,-9.6 c 5.2,3.4 12.7,6.2 20.7,6.2 10.3,0 17.2,-6 17.2,-14.2 0,-7.9 -5.6,-12.8 -16.3,-17.1 -14.7,-5.8 -23.8,-12.4 -23.8,-25 0,-12 8.5,-21 21.8,-23.2 v -14.6 h 8.9 v 14 c 8.7,0.3 14.6,2.6 18.8,5.1 l -3.6,9.5 c -3.1,-1.8 -9,-4.9 -18.2,-4.9 -11.1,0 -15.3,6.6 -15.3,12.4 0,7.5 5.3,11.2 17.9,16.4 14.9,6.1 22.4,13.6 22.4,26.4 0,11.4 -8,22.1 -22.8,24.5 v 15 z"
               id="path1971-20"
               style="fill:#c8891c" /></g></g></g></g></g><style
     id="style1395">.a{fill:#fdc11f}.b{fill:#ffdd17}.c{fill:#fece1b}.d{fill:#faa926}.e{mix-blend-mode:multiply;fill:#e5d4d4}.f{fill:#c8891c}.g{fill:#a47111}.h{fill:#fcba21}.i{fill:#c27a1c}</style></svg>
