<svg width="375" height="417" viewBox="0 0 375 417" fill="none" xmlns="http://www.w3.org/2000/svg">
<path d="M217.085 395.886C299.755 363.08 361.807 393.624 382 417L383 -55H-7.99976L-9 316.374C22.4763 400.172 113.748 436.894 217.085 395.886Z" fill="#212324"/>
</svg>
